<svg xmlns="http://www.w3.org/2000/svg" width="13" height="15" viewBox="0 0 13 15">
  <metadata><?xpacket begin="﻿" id="W5M0MpCehiHzreSzNTczkc9d"?>
<x:xmpmeta xmlns:x="adobe:ns:meta/" x:xmptk="Adobe XMP Core 5.6-c142 79.160924, 2017/07/13-01:06:39        ">
   <rdf:RDF xmlns:rdf="http://www.w3.org/1999/02/22-rdf-syntax-ns#">
      <rdf:Description rdf:about=""/>
   </rdf:RDF>
</x:xmpmeta>
                                                                                                    
                                                                                                    
                                                                                                    
                                                                                                    
                                                                                                    
                                                                                                    
                                                                                                    
                                                                                                    
                                                                                                    
                                                                                                    
                                                                                                    
                                                                                                    
                                                                                                    
                                                                                                    
                                                                                                    
                                                                                                    
                                                                                                    
                                                                                                    
                                                                                                    
                                                                                                    
                           
<?xpacket end="w"?></metadata>
<defs>
    <style>
      .cls-1 {
        fill: #5a5a5a;
        fill-rule: evenodd;
      }
    </style>
  </defs>
  <path id="location" class="cls-1" d="M856.834,237.608a6.755,6.755,0,0,0-10.664,0,5.722,5.722,0,0,0-.756,5.581,4.735,4.735,0,0,0,.942,1.452l4.718,5.174a0.58,0.58,0,0,0,.428.185,0.574,0.574,0,0,0,.427-0.185l4.717-5.173a4.724,4.724,0,0,0,.942-1.45A5.724,5.724,0,0,0,856.834,237.608Zm-0.3,5.217a3.7,3.7,0,0,1-.741,1.133l0,0-4.29,4.706-4.293-4.709a3.711,3.711,0,0,1-.743-1.136,4.733,4.733,0,0,1,.628-4.617,5.584,5.584,0,0,1,8.816,0A4.735,4.735,0,0,1,856.536,242.825Zm-5.034-4.713a2.944,2.944,0,1,0,3.145,2.937A3.05,3.05,0,0,0,851.5,238.112Zm0,4.825a1.892,1.892,0,1,1,2.022-1.888A1.961,1.961,0,0,1,851.5,242.937Z" transform="translate(-845 -235)"/>
</svg>
