<svg xmlns="http://www.w3.org/2000/svg" width="49.625" height="43.09" viewBox="0 0 49.625 43.09">
  <defs>
    <style>
      .cls-1 {
        fill: #7c7c7c;
        fill-rule: evenodd;
      }
    </style>
  </defs>
  <path id="hybrid" class="cls-1" d="M898.2,1190.01h6.5a3.507,3.507,0,0,0,3.467-3.53v-7.8a3.5,3.5,0,0,0-3.467-3.53h-6.5a3.5,3.5,0,0,0-3.467,3.53v7.8A3.507,3.507,0,0,0,898.2,1190.01Zm-1.341-11.33a1.352,1.352,0,0,1,1.341-1.36h6.5a1.352,1.352,0,0,1,1.341,1.36v7.8a1.352,1.352,0,0,1-1.341,1.36h-6.5a1.352,1.352,0,0,1-1.341-1.36v-7.8Zm7.459,14.31-3.121.46-3.2,6.84,2.721-.4-1.543,6.12L905,1198l-2.491-1.15ZM936,1176.14h-3.093v-3.55a1.063,1.063,0,1,0-2.126,0v3.55H927.3v-3.55a1.063,1.063,0,1,0-2.126,0v3.55H921.89a7.157,7.157,0,0,0,5.992,7.1v24.57a2.416,2.416,0,1,1-4.832,0v-9.97a4.224,4.224,0,0,0-4.178-4.26h-5.68a1.882,1.882,0,0,0-.242.03v-18.92a3.741,3.741,0,0,0-3.705-3.77H893.653a3.741,3.741,0,0,0-3.7,3.77v30.57h-0.034a3.572,3.572,0,0,0-3.542,3.6l0.122,5.15h30.54l-0.123-5.16a3.577,3.577,0,0,0-3.542-3.59h-0.42v-9.54a0.972,0.972,0,0,0,.242.03h5.68a2.075,2.075,0,0,1,2.052,2.09v9.97a4.543,4.543,0,1,0,9.084,0v-24.57A7.157,7.157,0,0,0,936,1176.14Zm-43.925-1.45a1.592,1.592,0,0,1,1.578-1.6h15.592a1.593,1.593,0,0,1,1.579,1.6v32.63H892.075v-32.63Zm21.295,32.73a1.432,1.432,0,0,1,1.416,1.44l0.071,2.99H888.571l-0.072-3a1.43,1.43,0,0,1,1.416-1.43h0.034v2.07h23v-2.07h0.42Z" transform="translate(-886.375 -1170.91)"/>
</svg>
