<svg xmlns="http://www.w3.org/2000/svg" width="43.875" height="46.75" viewBox="0 0 43.875 46.75">
  <defs>
    <style>
      .cls-1 {
        fill: #0b76c7;
        fill-rule: evenodd;
      }
    </style>
  </defs>
  <path id="diesel" class="cls-1" d="M579.675,1190.14a3.135,3.135,0,0,0-3.093,3.17v7.74a3.094,3.094,0,1,0,6.186,0v-7.74A3.134,3.134,0,0,0,579.675,1190.14Zm1.092,10.91a1.092,1.092,0,1,1-2.183,0v-7.74a1.092,1.092,0,1,1,2.183,0v7.74Zm9.2-24.16h-9.9a3.534,3.534,0,0,0-3.487,3.58v5.38h16.874v-5.38A3.534,3.534,0,0,0,589.969,1176.89Zm1.486,6.9H578.584v-3.32a1.512,1.512,0,0,1,1.485-1.53h9.9a1.512,1.512,0,0,1,1.486,1.53v3.32Zm9.3,25.06a3.384,3.384,0,0,0-3.334-3.41h-0.395v-28.99a3.533,3.533,0,0,0-3.487-3.57H576.134a3.532,3.532,0,0,0-3.487,3.57v10.46h-3.618a3.988,3.988,0,0,0-3.933,4.03v9.46a2.275,2.275,0,1,1-4.548,0v-17.17h1.818v-0.8h1.543a2.832,2.832,0,0,0,2.795-2.87v-2.11a7.3,7.3,0,0,0-2.865-5.83,6.15,6.15,0,0,1,1.173-.4,5.872,5.872,0,0,1,1.383-.16h0.273v-0.65l-3.114-3.32-0.081-.09h-0.147l-0.031.01a7.344,7.344,0,0,0-1.44.49,8.364,8.364,0,0,0-4.855,7.63v8.1h1.546v17.17a4.277,4.277,0,1,0,8.552,0v-9.46a1.959,1.959,0,0,1,1.931-1.98h3.618v16.48h-0.032a3.379,3.379,0,0,0-3.334,3.42l0.115,4.88h31.477Zm-41.886-33.72a6.54,6.54,0,0,1,.981-3.45,6.868,6.868,0,0,1,.745-0.97,6.275,6.275,0,0,1,2.286-1.57l0.542,0.58a8.307,8.307,0,0,0-1.683.92,8.746,8.746,0,0,0-1.245,1.1q-0.055.06-.108,0.12l-0.185.21,1.384,1.29,0.184-.21c0.115-.13.238-0.25,0.365-0.37a5.337,5.337,0,0,1,2.7,4.67v2.11a0.934,0.934,0,0,1-.924.95h-3.294v0.81h-1.744v-6.19Zm15.778,1.32a1.5,1.5,0,0,1,1.485-1.52h17.407a1.5,1.5,0,0,1,1.485,1.52v30.95H574.649v-30.95Zm-3.3,35.24-0.067-2.84a1.353,1.353,0,0,1,1.332-1.36h0.032v1.96h24.381v-1.96h0.395a1.357,1.357,0,0,1,1.333,1.37l0.067,2.83H571.35Z" transform="translate(-557 -1167)"/>
</svg>
