<svg xmlns="http://www.w3.org/2000/svg" width="50" height="45" viewBox="0 0 50 45">
  <defs>
    <style>
      .cls-1 {
        fill: #0b76c7;
        fill-rule: evenodd;
      }
    </style>
  </defs>
  <path id="electronic" class="cls-1" d="M1077.2,1191.46l-3.2,6.83,2.72-.4-1.54,6.12L1081,1196l-2.49-1.14,1.8-3.86Zm23.23,6.94a8.829,8.829,0,0,0-4.04-3.21,22,22,0,0,1-6.91-4.42l-2.75-2.54a11.2,11.2,0,0,0-7.64-3.01h-8.96a11.35,11.35,0,0,0-11.29,11.39,1.035,1.035,0,1,0,2.07,0,9.272,9.272,0,0,1,9.22-9.3h8.96a9.126,9.126,0,0,1,6.24,2.46l2.74,2.54a24.217,24.217,0,0,0,7.56,4.83,6.752,6.752,0,0,1,4.29,6.33v1.52a1.052,1.052,0,0,1-1.05,1.06h-4.17a1.041,1.041,0,0,0-1.04,1.05,4.765,4.765,0,1,1-9.53,0,1.048,1.048,0,0,0-1.04-1.05h-11.78a0.433,0.433,0,0,1-.05.01h-0.04c-0.03,0-.05.01-0.08,0.01h-0.02a1.066,1.066,0,0,0-.71.51v0.01a0.594,0.594,0,0,0-.04.08v0.01c-0.01.02-.02,0.05-0.03,0.07a0.037,0.037,0,0,0-.01.03c-0.01.02-.01,0.04-0.02,0.06s-0.01.03-.01,0.04-0.01.04-.01,0.06a0.06,0.06,0,0,1-.01.04v0.1a4.765,4.765,0,0,1-9.53-.1,4.75,4.75,0,0,1,.37-1.86c0-.01.01-0.01,0.01-0.02a0.488,0.488,0,0,1,.03-0.07,0.037,0.037,0,0,1,.01-0.03c0.01-.03.01-0.06,0.02-0.08a0.037,0.037,0,0,1,.01-0.03c0-.03.01-0.06,0.01-0.09v-0.02a0.308,0.308,0,0,0,.01-0.1v-0.01h0a0.277,0.277,0,0,0-.01-0.09v-0.02a0.22,0.22,0,0,0-.01-0.08v-0.02a0.235,0.235,0,0,1-.02-0.08c0-.01-0.01-0.01-0.01-0.02a0.689,0.689,0,0,0-.03-0.08v-0.02a1.2,1.2,0,0,0-.29-0.39,0.01,0.01,0,0,1-.01-0.01c-0.02-.01-0.04-0.03-0.06-0.04s-0.02-.01-0.03-0.02l-0.01-.01a14.59,14.59,0,0,1-2.45-22.5,14.237,14.237,0,0,1,10.17-4.25h6.22a6.912,6.912,0,0,0,6.8,5.85v-3.04h3.4a1.05,1.05,0,0,0,0-2.1h-3.4v-3.42h3.4a1.05,1.05,0,0,0,0-2.1h-3.4V1169a6.9,6.9,0,0,0-6.81,5.95h-6.21a16.26,16.26,0,0,0-11.64,4.86,16.691,16.691,0,0,0,2.12,25.28,6.694,6.694,0,0,0-.27,1.89,6.876,6.876,0,0,0,6.84,6.9,6.8,6.8,0,0,0,4.8-1.97,6.954,6.954,0,0,0,1.95-3.76h9.87a6.831,6.831,0,0,0,13.52,0h3.22a3.148,3.148,0,0,0,3.13-3.16v-1.52A8.885,8.885,0,0,0,1100.43,1198.4Z" transform="translate(-1052 -1169)"/>
</svg>
