<?xml version="1.0" encoding="utf-8"?>
<!-- Generator: Adobe Illustrator 21.0.0, SVG Export Plug-In . SVG Version: 6.00 Build 0)  -->
<svg version="1.1" xmlns="http://www.w3.org/2000/svg" xmlns:xlink="http://www.w3.org/1999/xlink" x="0px" y="0px" width="180px"
	 height="60px" viewBox="0 0 180 60" style="enable-background:new 0 0 180 60;" xml:space="preserve">
<style type="text/css">
	.st0{display:none;}
	.st1{display:inline;}
	.st2{fill:#7C7C7C;}
	.st3{fill:#0B76C7;}
	.st4{display:inline;fill:#0B76C7;}
	.st5{display:none;fill:#0B76C7;}
</style>
<g id="Layer_1" class="st0">
	<g class="st1">
		<g>
			<path d="M106.7-3.7L106.7-3.7c-1.1,0-2-0.9-2-2v-5.9c0-0.6,0.2-1.1,0.7-1.5l4.6-4c0.8-0.7,2.1-0.6,2.8,0.2v0
				c0.7,0.8,0.6,2.1-0.2,2.8l-3.3,2.8c-0.4,0.4-0.7,0.9-0.7,1.5v4.1C108.7-4.6,107.8-3.7,106.7-3.7z"/>
		</g>
		<g>
			<path d="M110.2,24.8c-1.2,0-2.4-0.3-3.2-0.9c-1.2-0.8-1.8-1.9-1.8-3.3V-0.2h3.1v20.8c0,0.2,0,0.6,0.8,0.9
				c1.1,0.4,2.4,0.1,2.8-0.2V4.9h3.1v16.5C115,23.4,113,24.8,110.2,24.8z"/>
		</g>
		<rect x="113.6" y="30.1" width="35.4" height="3.9"/>
		<path d="M142-23h-21.5c-2.1,0-3.8,1.7-3.8,3.8v47.7h29.1v-47.7C145.8-21.3,144.1-23,142-23z M142.1-9.6c0,2-1.6,3.5-3.5,3.5H124
			c-2,0-3.5-1.6-3.5-3.5v-6.3c0-2,1.6-3.5,3.5-3.5h14.5c2,0,3.5,1.6,3.5,3.5V-9.6z"/>
	</g>
	<g class="st1">
		<path d="M143.7,43h-27.3c-1.7,0-3.1,1.4-3.1,3.1v21l3.6,31.3c0.2,1.5,1.4,2.6,2.9,2.6h20.3c1.5,0,2.8-1.1,2.9-2.6l3.6-31.3v-21
			C146.8,44.4,145.4,43,143.7,43z M142.8,62.7h-25.6V46.9h25.6V62.7z"/>
		<path d="M134.3,59.1l1.4-4.5c0.1-0.2-0.2-0.3-0.3-0.2l-2.8,3.4c-0.8-0.4-1.6-0.6-2.5-0.6c-2.7,0-5,1.9-5.7,4.4h11.4
			C135.5,60.7,135,59.8,134.3,59.1z"/>
		<path d="M159.5,91.5l0-1.3l0-21.1c0-1.7,0-3.5-0.1-5.3c-0.1-1.8-0.4-3.6-0.9-5.3c-0.5-1.8-1.1-3.5-2-5.1c-0.9-1.6-2.1-3.1-3.5-4.3
			l-1,1.1c2.1,1.9,3.5,4.4,4.4,7c-1.7,0.2-4.3,1.9-5,3.3c-0.4,0.9-0.3,1.7,0.4,2.2c2.6,1.8,4.9,5.8,5.8,7.4l-0.3,20
			c0,0.9,0,1.8-0.1,2.4c-0.1,0.6-0.4,1.1-0.9,1.5c-0.9,0.7-2.6,0.7-3.7,0.1c-0.6-0.3-1-0.8-1.2-1.3c-0.1-0.3-0.2-0.6-0.2-0.9
			c0-0.2,0-0.3,0-0.5l0.1-0.5l0.8-5.2l0.8-5.2c0.2-1.8,0.5-3.4,0.7-5.3c0.2-1.8,0.2-3.7-0.2-5.7c-0.2-1-0.6-2-1.2-2.9
			c-0.3-0.5-0.7-0.9-1.3-1.3c-0.2-0.2-0.5-0.3-0.8-0.5c-0.2-0.1-0.3-0.1-0.5-0.2c-0.1,0-0.2-0.1-0.3-0.1c-0.1,0-0.2,0-0.4-0.1
			l-0.2,2.9c-0.1,0,0,0,0,0c0,0,0,0,0.1,0c0,0,0.1,0,0.1,0.1c0.1,0,0.2,0.1,0.3,0.2c0.2,0.1,0.4,0.4,0.6,0.6
			c0.4,0.5,0.6,1.2,0.8,1.9c0.3,1.5,0.4,3.1,0.2,4.8c-0.2,1.6-0.4,3.4-0.6,5.2l-0.7,5.2l-0.7,5.2l-0.1,0.8c0,0.3,0,0.6,0,0.8
			c0,0.6,0.2,1.1,0.4,1.7c0.5,1.1,1.3,2,2.3,2.5c1,0.5,2.1,0.8,3.2,0.7c1.1,0,2.2-0.4,3.1-1.1c0.9-0.7,1.5-1.8,1.7-2.9
			c0-0.3,0.1-0.5,0.1-0.8C159.5,91.9,159.5,91.7,159.5,91.5z M152.6,61.6C152.6,61.5,152.6,61.5,152.6,61.6c-0.1-0.1,0-0.5,0.8-1.2
			c1.3-1.2,2.9-1.8,3.2-1.7l0.1-0.2c0,0.1,0.1,0.2,0.1,0.4c0.4,1.6,0.6,3.3,0.7,5.1c0.1,1.1,0.1,2.3,0.1,3.4
			C156.4,65.4,154.6,63,152.6,61.6z"/>
	</g>
	<g class="st1">
		<path d="M65.2,46L33.4,72.1l31.7,26.1l31.7-26.1L65.2,46z M54.4,75.5c0.9,0,1.8-0.2,2.4-0.4l0.4,2.2c-0.5,0.3-1.7,0.5-3.2,0.5
			c-4.4,0-6.6-2.7-6.6-6.3c0-4.3,3.1-6.7,6.9-6.7c1.5,0,2.6,0.3,3.1,0.6l-0.6,2.3c-0.6-0.2-1.4-0.5-2.4-0.5c-2.3,0-4,1.4-4,4.2
			C50.4,73.9,51.9,75.5,54.4,75.5z M69.6,77.6h-3l-2.7-4.9c-0.8-1.4-1.6-3-2.2-4.5l-0.1,0c0.1,1.7,0.1,3.5,0.1,5.5v3.8h-2.6V65h3.3
			l2.6,4.6c0.8,1.3,1.5,2.9,2.1,4.3h0.1C67,72.3,67,70.6,67,68.7V65h2.6V77.6z M78.4,77.8c-2.3,0-4-0.6-5.1-1.7
			c-1.2-1.1-1.8-2.7-1.8-4.6c0-4.2,3.1-6.6,7.2-6.6c1.6,0,2.9,0.3,3.5,0.6l-0.6,2.3c-0.7-0.3-1.6-0.5-2.9-0.5
			c-2.4,0-4.2,1.4-4.2,4.1c0,2.6,1.6,4.1,4,4.1c0.7,0,1.2-0.1,1.4-0.2v-2.6h-2v-2.2h4.7v6.7C81.7,77.4,80.1,77.8,78.4,77.8z"/>
		<path d="M65.2,43L29.8,72.1l35.4,29.1l35.4-29.1L65.2,43z M65.2,99.6L31.9,72.1l33.3-27.4l33.3,27.4L65.2,99.6z"/>
	</g>
	<g class="st1">
		<g>
			<path d="M80,3.4H49.7c-0.4,0-0.8-0.4-0.8-0.8V2.4c0-0.4,0.4-0.8,0.8-0.8H80c0.4,0,0.8,0.4,0.8,0.8v0.2C80.8,3,80.5,3.4,80,3.4z"
				/>
			<g>
				<path d="M49.8,3h30.1c0.2,0,0.3-0.1,0.4-0.2V2.2C80.2,2.1,80.1,2,79.9,2H49.8c-0.2,0-0.3,0.1-0.4,0.2v0.5
					C49.5,2.9,49.6,3,49.8,3z"/>
				<path d="M49.8,1.2h30.1c0.1,0,0.3,0,0.4,0.1V0.4c0-4.3-3.5-7.7-7.7-7.7H57.1c-4.3,0-7.7,3.5-7.7,7.7v0.8
					C49.5,1.2,49.6,1.2,49.8,1.2z"/>
			</g>
		</g>
		<g>
			<path d="M80,21H49.7c-0.4,0-0.8-0.4-0.8-0.8V20c0-0.4,0.4-0.8,0.8-0.8H80c0.4,0,0.8,0.4,0.8,0.8v0.2C80.8,20.7,80.5,21,80,21z"/>
			<g>
				<path d="M49.8,18.8h30.1c0.1,0,0.3,0,0.4,0.1V3.8c-0.1,0-0.3,0.1-0.4,0.1H49.8c-0.1,0-0.3,0-0.4-0.1v15.1
					C49.5,18.8,49.6,18.8,49.8,18.8z"/>
				<path d="M49.8,20.6h30.1c0.2,0,0.3-0.1,0.4-0.2v-0.5c-0.1-0.1-0.2-0.2-0.4-0.2H49.8c-0.2,0-0.3,0.1-0.4,0.2v0.5
					C49.5,20.5,49.6,20.6,49.8,20.6z"/>
				<path d="M79.9,21.4H49.8c-0.1,0-0.3,0-0.4-0.1v4.9c0,4.3,3.5,7.7,7.7,7.7h15.5c4.3,0,7.7-3.5,7.7-7.7v-4.9
					C80.2,21.4,80.1,21.4,79.9,21.4z"/>
			</g>
		</g>
		<path d="M73.1,36.2h-0.7v-1.6h-1.8v1.6H68v-1.6h-1.8v1.6h-2.6v-1.6h-1.8v1.6h-2.6v-1.6h-1.8v1.6h-0.7c-0.5,0-0.9,0.4-0.9,0.9
			c0,0.5,0.4,0.9,0.9,0.9h16.5c0.5,0,0.9-0.4,0.9-0.9C74,36.6,73.6,36.2,73.1,36.2z"/>
		<path d="M57.4-15.2v7.4h15v-7.4H57.4z M70.7-8.3H59v-6.3h11.7V-8.3z"/>
		<path d="M67.2-12.4h-4.6c-0.1,0-0.2,0.1-0.2,0.2v1c0,0.1,0.1,0.2,0.2,0.2h1.9v0.3h-0.3v1.9h1.4v-0.8h0.8v0.1h0.4v-1.4h-0.4v0.1
			h-0.8h-0.1h-0.1V-11h1.9c0.1,0,0.2-0.1,0.2-0.2v-1C67.4-12.3,67.3-12.4,67.2-12.4z"/>
		<path d="M73.1-15.9H56.6c-0.5,0-1-0.4-1-1V-17c0-0.5,0.4-1,1-1h16.5c0.5,0,1,0.4,1,1v0.2C74.1-16.3,73.6-15.9,73.1-15.9z"/>
	</g>
</g>
<g id="Hatchback" class="st0">
	<g id="_x30_1_1_" class="st1">
		<path class="st2" d="M67.2,48.2h52.3c0.6,0,1.2-0.5,1.2-1.2v-0.2c0-0.6-0.5-1.2-1.2-1.2H67.2c-0.6,0-1.2,0.5-1.2,1.2v0.2
			C66,47.7,66.6,48.2,67.2,48.2z"/>
		<path class="st2" d="M23.1,48.8c2.3,0.8,6.2,1,8.8,1c1.4,0,2.3,0,2.4,0l-0.1-2.2c-0.1,0-7.2,0.3-10.4-0.8
			c-0.5-0.2-1.2-1.1-1.6-3.2c-0.7-3.6-0.2-8.7,1.8-10.6c6.4-5.9,25.1-8.8,25.3-8.8l0.3,0l0.2-0.2c2.3-1.7,5.2-4.4,8.4-7.3
			c6-5.5,13.5-12.4,17-12.4c11.6,0,52.3,0,57.5,0c0.3,0,1.4,0.9,4.1,3.6c2.7,2.7,6.2,7.2,9.3,12c3.4,5.2,4.7,8.2,4.7,8.8
			c-0.2,3.1,0,6.3,0,6.5l0,0.5l0.4,0.3c2.9,2.2,2,8.8,1.5,11.2l1.1,0.3l-1.1-0.3l2.1,0.5c0.1-0.4,2.2-9.4-1.9-13.1
			c0-1-0.1-3.4,0-5.8c0.1-1.8-2.9-6.8-4.7-9.6c-3-4.7-6.5-9.2-9.3-12.2c-3.6-3.8-5.3-5-6.3-5c-5.2,0-45.9,0.1-57.5,0.1
			c-4.4,0-11.6,6.6-18.5,13c-3,2.7-5.8,5.3-8,7c-2.5,0.4-19.7,3.3-26.2,9.3c-2.7,2.5-3.4,8.4-2.5,12.6
			C20.5,45.8,21.3,48.1,23.1,48.8z"/>
		<path class="st2" d="M104.2,9.7c0.1-0.4,0.1-0.8-0.1-1.2c-0.3-0.4-0.7-0.7-1.2-0.7h-27L59.1,23.4c-0.4,0.3-0.5,0.9-0.3,1.3
			c0.2,0.5,0.6,0.8,1.1,0.8h41.8L104.2,9.7z M69.9,22.2c-0.1,0.2-0.2,0.3-0.3,0.4l0,0l-1.3,0.1c0,0,0-0.1,0.1-0.1l2-2.4l0-0.1
			c0.1-0.2,0.3-0.3,0.4-0.4l1.3,0.1c0,0.1-0.1,0.1-0.1,0.2L69.9,22.2L69.9,22.2z M71,23.3c0.1-0.1,0.1-0.1,0.2-0.2l1.9-2.2l0,0
			c0.2-0.4,0.4-0.8,0.5-1.2c0.1-0.6-0.1-1-0.5-1.3L73,18.3l-1.8-0.2c-0.6-0.2-1.5,0.2-2.1,1l-2,2.4l0,0.1c-0.2,0.4-0.4,0.8-0.5,1.2
			c0,0.2,0,0.4,0,0.5h-4.2l14.3-13.2h25.2l-2.1,13.2H71z"/>
		<path class="st2" d="M139.7,24.8c0.2-0.4,0.2-1,0-1.4l-9-14.2c0-0.2-0.1-0.4-0.2-0.6c-0.3-0.4-0.7-0.7-1.2-0.7h-21l-2.6,16
			c-0.1,0.3-0.1,0.6,0,0.9c0.2,0.5,0.6,0.8,1.1,0.8h31.7C139,25.5,139.4,25.2,139.7,24.8z M107.9,23.3l2.2-13.2h18.5l8.4,13.2H107.9
			z"/>
		<path class="st2" d="M49.9,35.9c-6.1,0-11,4.9-11,11c0,6.1,4.9,11,11,11c6.1,0,11-4.9,11-11C60.9,40.9,56,35.9,49.9,35.9z
			 M49.9,55.8c-4.9,0-8.9-4-8.9-8.9s4-8.9,8.9-8.9c4.9,0,8.9,4,8.9,8.9S54.8,55.8,49.9,55.8z"/>
		<path class="st2" d="M45.4,47.6h-1.5c0.1,1.2,0.6,2.2,1.3,3.1l1.1-1.1C45.8,49.1,45.5,48.4,45.4,47.6z"/>
		<path class="st2" d="M46.2,44.3l-1.1-1.1c-0.7,0.9-1.2,1.9-1.3,3.1h1.5C45.5,45.5,45.8,44.8,46.2,44.3z"/>
		<path class="st2" d="M47.2,43.3c0.6-0.4,1.3-0.7,2-0.8v-1.5c-1.2,0.1-2.2,0.6-3.1,1.3L47.2,43.3z"/>
		<path class="st2" d="M53.7,42.2c-0.9-0.7-1.9-1.2-3.1-1.3v1.5c0.8,0.1,1.5,0.4,2,0.8L53.7,42.2z"/>
		<path class="st2" d="M46.1,51.7c0.9,0.7,1.9,1.2,3.1,1.3v-1.5c-0.8-0.1-1.5-0.4-2-0.8L46.1,51.7z"/>
		<path class="st2" d="M53.5,49.7l1.1,1.1c0.7-0.9,1.2-1.9,1.3-3.1h-1.5C54.2,48.4,53.9,49.1,53.5,49.7z"/>
		<path class="st2" d="M53.5,44.3c0.4,0.6,0.7,1.3,0.8,2h1.5c-0.1-1.2-0.6-2.2-1.3-3.1L53.5,44.3z"/>
		<path class="st2" d="M50.5,51.4V53c1.2-0.1,2.2-0.6,3.1-1.3l-1.1-1.1C52,51,51.3,51.3,50.5,51.4z"/>
		<path class="st2" d="M137,35.9c-6.1,0-11,4.9-11,11c0,6.1,4.9,11,11,11c6.1,0,11-4.9,11-11C148,40.9,143.1,35.9,137,35.9z
			 M137,55.8c-4.9,0-8.9-4-8.9-8.9s4-8.9,8.9-8.9c4.9,0,8.9,4,8.9,8.9S141.9,55.8,137,55.8z"/>
		<path class="st2" d="M132.5,47.6H131c0.1,1.2,0.6,2.2,1.3,3.1l1.1-1.1C132.9,49.1,132.6,48.4,132.5,47.6z"/>
		<path class="st2" d="M133.4,44.3l-1.1-1.1c-0.7,0.9-1.2,1.9-1.3,3.1h1.5C132.6,45.5,132.9,44.8,133.4,44.3z"/>
		<path class="st2" d="M134.3,43.3c0.6-0.4,1.3-0.7,2-0.8v-1.5c-1.2,0.1-2.2,0.6-3.1,1.3L134.3,43.3z"/>
		<path class="st2" d="M140.8,42.2c-0.9-0.7-1.9-1.2-3.1-1.3v1.5c0.8,0.1,1.5,0.4,2,0.8L140.8,42.2z"/>
		<path class="st2" d="M133.2,51.7c0.9,0.7,1.9,1.2,3.1,1.3v-1.5c-0.8-0.1-1.5-0.4-2-0.8L133.2,51.7z"/>
		<path class="st2" d="M140.6,49.7l1.1,1.1c0.7-0.9,1.2-1.9,1.3-3.1h-1.5C141.4,48.4,141.1,49.1,140.6,49.7z"/>
		<path class="st2" d="M140.6,44.3c0.4,0.6,0.7,1.3,0.8,2h1.5c-0.1-1.2-0.6-2.2-1.3-3.1L140.6,44.3z"/>
		<path class="st2" d="M137.7,51.4V53c1.2-0.1,2.2-0.6,3.1-1.3l-1.1-1.1C139.1,51,138.4,51.3,137.7,51.4z"/>
		<path class="st2" d="M91.4,32.6H95c1.2,0,2.2-1,2.2-2.2v-0.2h-8v0.2C89.2,31.6,90.2,32.6,91.4,32.6z"/>
		<path class="st2" d="M115,32.6c1.2,0,2.2-1,2.2-2.2v-0.2h-8v0.2c0,1.2,1,2.2,2.2,2.2H115z"/>
		<rect x="60.9" y="54.4" class="st2" width="11.2" height="2"/>
		<rect x="21.1" y="54.4" class="st2" width="17.8" height="2"/>
		<rect x="148.3" y="54.4" class="st2" width="12" height="2"/>
		<rect x="115.2" y="54.4" class="st2" width="11" height="2"/>
		<rect x="79.2" y="54.4" class="st2" width="30.8" height="2"/>
	</g>
</g>
<g id="Sedan" class="st0">
	<g class="st1">
		<g>
			<path class="st2" d="M106.9,46.7h-43c-0.4,0-0.8,0.4-0.8,1V48c0,0.5,0.4,1,0.8,1h43c0.4,0,0.8-0.4,0.8-1v-0.4
				C107.7,47.1,107.3,46.7,106.9,46.7L106.9,46.7z"/>
		</g>
		<path class="st2" d="M163.8,47.4l-0.2,1h-22.1v-2.6h20.1c0.6-3.3,0.5-7.5-1.4-8.9l-0.5-0.4l0-0.6c0-0.4-0.2-10.7,0-13.6
			c-0.2-0.4-2.9-1.1-4.4-1.5c-3.8-1.1-9.6-2.6-16.3-6.4c-14.4-8-38.1-13.2-58.8-7.1c-9.4,2.8-23.2,10.8-29.6,15.5L50.1,23l-0.2,0
			c-0.2,0-21,3.2-30.4,11.1c-0.1,0.1-0.7,1.2-1,3.8c-0.3,2.3-0.3,4.7,0,6.3c0.3,1.4,0.7,1.9,0.8,1.9c2.7,1,8.3,0.7,8.9,0.7l0.3,0
			l0,0.3l0.1,2.3l-0.3,0c0,0-0.8,0-2.1,0c-2.4,0-5.7-0.2-7.8-0.9c-1.2-0.4-2.1-1.7-2.5-3.9c-0.8-4.1,0-11,1.9-12.6
			c4.2-3.6,10.8-6.6,19.7-9.1c5.6-1.5,10.2-2.4,11.7-2.6c6.5-4.8,20.6-12.9,30.1-15.7c10.4-3.1,22.2-3.7,34.1-1.7
			c7.1,1.2,14.3,3.3,20.6,6c0,0,0-0.1,0-0.1c0.3-0.5,0.9-0.7,1.5-0.7c0.5,0,1,0.2,1.5,0.5c0.5,0.3,0.8,0.7,1,1.2
			c0.1,0.3,0.2,0.7,0.1,1v0c0.6,0.3,1.3,0.6,1.9,1c6.5,3.6,12.1,5.1,15.8,6.1c1.8,0.5,3.2,0.9,4.2,1.3c1.5,0.7,2.2,1.6,2.1,2.8
			c-0.1,2.3,0,10.2,0,12.8C165.8,38.8,163.9,47,163.8,47.4z"/>
		<path class="st2" d="M91.7,7.4c-0.2,0-4.9,0.4-11.3,2.1c-5.9,1.6-14.3,4.6-20.9,9.9l-0.9,0.7l0.9,0.8c0.1,0.1,1.5,1.5,0.8,4.1
			L60,26.3h27.5l5.7-19L91.7,7.4z M85.7,23.8H63c0-1.4-0.4-2.5-0.8-3.2c9.5-7.1,22.6-9.6,27.5-10.4L85.7,23.8z"/>
		<path class="st2" d="M126.8,11.7c-0.1,0-14.7-4.8-31.1-4.3l-1,0l-5.3,18.9h35.7l2.8-14.2L126.8,11.7z M92.9,23.7L96.7,10
			c13-0.2,24.5,2.8,28.2,3.9l-1.9,9.9H92.9z"/>
		<path class="st2" d="M138.7,16.9l-9.9-4.6l-2.8,14h10.6c2.7,0,4.9-2.2,4.9-4.9C141.5,19.5,140.4,17.7,138.7,16.9z M136.5,23.7
			h-7.4l1.6-7.6l6.9,3.2c0.8,0.4,1.3,1.2,1.3,2.1C138.9,22.7,137.8,23.7,136.5,23.7z"/>
		<g>
			<g>
				<path class="st2" d="M40.4,46.6h-1.7c0.1,1.3,0.6,2.5,1.4,3.4l1.2-1.2C40.9,48.2,40.5,47.5,40.4,46.6z"/>
				<path class="st2" d="M41.3,42.9l-1.2-1.2c-0.8,1-1.3,2.1-1.4,3.4h1.7C40.5,44.3,40.9,43.6,41.3,42.9z"/>
				<path class="st2" d="M42.4,41.9c0.6-0.5,1.4-0.8,2.2-0.9v-1.7c-1.3,0.1-2.5,0.6-3.4,1.4L42.4,41.9z"/>
				<path class="st2" d="M49.5,40.7c-1-0.8-2.1-1.3-3.4-1.4V41c0.8,0.1,1.6,0.4,2.2,0.9L49.5,40.7z"/>
				<path class="st2" d="M41.2,51.1c1,0.8,2.1,1.3,3.4,1.4v-1.7c-0.8-0.1-1.6-0.4-2.2-0.9L41.2,51.1z"/>
				<path class="st2" d="M49.3,48.9l1.2,1.2c0.8-1,1.3-2.1,1.4-3.4h-1.7C50.1,47.5,49.8,48.2,49.3,48.9z"/>
				<path class="st2" d="M49.3,42.9c0.5,0.6,0.8,1.4,0.9,2.2h1.7c-0.1-1.3-0.6-2.5-1.4-3.4L49.3,42.9z"/>
				<path class="st2" d="M46,50.8v1.7c1.3-0.1,2.5-0.6,3.4-1.4l-1.2-1.2C47.6,50.4,46.9,50.7,46,50.8z"/>
				<path class="st2" d="M45.3,33.8c-6.7,0-12.1,5.4-12.1,12.1c0,6.7,5.4,12.1,12.1,12.1c6.7,0,12.1-5.4,12.1-12.1
					C57.4,39.2,52,33.8,45.3,33.8z M45.3,55.6c-5.4,0-9.7-4.4-9.7-9.7s4.4-9.7,9.7-9.7c5.4,0,9.7,4.4,9.7,9.7S50.7,55.6,45.3,55.6z"
					/>
			</g>
			<g>
				<path class="st2" d="M120.5,46.6h-1.7c0.1,1.3,0.6,2.5,1.4,3.4l1.2-1.2C120.9,48.2,120.6,47.5,120.5,46.6z"/>
				<path class="st2" d="M121.4,42.9l-1.2-1.2c-0.8,1-1.3,2.1-1.4,3.4h1.7C120.6,44.3,120.9,43.6,121.4,42.9z"/>
				<path class="st2" d="M122.4,41.9c0.6-0.5,1.4-0.8,2.2-0.9v-1.7c-1.3,0.1-2.5,0.6-3.4,1.4L122.4,41.9z"/>
				<path class="st2" d="M129.5,40.7c-1-0.8-2.1-1.3-3.4-1.4V41c0.8,0.1,1.6,0.4,2.2,0.9L129.5,40.7z"/>
				<path class="st2" d="M121.3,51.1c1,0.8,2.1,1.3,3.4,1.4v-1.7c-0.8-0.1-1.6-0.4-2.2-0.9L121.3,51.1z"/>
				<path class="st2" d="M129.4,48.9l1.2,1.2c0.8-1,1.3-2.1,1.4-3.4h-1.7C130.2,47.5,129.9,48.2,129.4,48.9z"/>
				<path class="st2" d="M129.4,42.9c0.5,0.6,0.8,1.4,0.9,2.2h1.7c-0.1-1.3-0.6-2.5-1.4-3.4L129.4,42.9z"/>
				<path class="st2" d="M126.1,50.8v1.7c1.3-0.1,2.5-0.6,3.4-1.4l-1.2-1.2C127.7,50.4,126.9,50.7,126.1,50.8z"/>
				<path class="st2" d="M125.4,33.8c-6.7,0-12.1,5.4-12.1,12.1c0,6.7,5.4,12.1,12.1,12.1c6.7,0,12.1-5.4,12.1-12.1
					C137.5,39.2,132.1,33.8,125.4,33.8z M125.4,55.6c-5.4,0-9.7-4.4-9.7-9.7s4.4-9.7,9.7-9.7c5.4,0,9.7,4.4,9.7,9.7
					S130.7,55.6,125.4,55.6z"/>
			</g>
			<g>
				<path class="st2" d="M77.6,32.4h3.9c1.3,0,2.4-1.1,2.4-2.4v-0.2h-8.8V30C75.2,31.3,76.3,32.4,77.6,32.4z"/>
				<path class="st2" d="M118.9,32.4c1.3,0,2.4-1.1,2.4-2.4v-0.2h-8.8V30c0,1.3,1.1,2.4,2.4,2.4H118.9z"/>
			</g>
			<g>
				<rect x="57.6" y="55.8" class="st2" width="26.3" height="2.2"/>
				<rect x="17.1" y="55.8" class="st2" width="16.5" height="2.2"/>
				<rect x="136.6" y="55.8" class="st2" width="26.3" height="2.2"/>
				<rect x="91.7" y="55.8" class="st2" width="21.9" height="2.2"/>
			</g>
		</g>
	</g>
</g>
<g id="Station_Wagon" class="st0">
	<g class="st1">
		<g>
			<path class="st2" d="M163.3,48.3h-17.6v-2.2h16.6c4.4-5.8,3.1-8.3,1.5-11.5c-0.4-0.7-0.8-1.5-1.1-2.3c-0.8-1.9-0.6-4-0.4-6
				c0.3-3.5,0.6-6.7-2.9-9.8c-4-3.4-7.3-7.4-9.5-10.3c-1-1.3-2.6-2.1-4.2-2.1H89.8c-11.9,0-23.3,4.6-30.8,8.4
				C50.9,16.8,45.5,21,45.5,21l-0.2,0.2l-0.3,0c-16.8,2-24.2,7.9-27.4,12.5c-2.9,4.1-2.9,7.7-2.7,8.3c0.4,1.6,1,2.9,1.4,3.7H29v2.2
				H14.9l-0.3-0.5c-0.1-0.1-1.3-2.2-1.9-4.8c-0.3-1.4,0-5.6,3.1-10c3.5-4.9,11.2-11.2,28.6-13.3c1.2-0.9,6.2-4.7,13.7-8.5
				C65.7,6.7,77.5,2,89.8,2h55.8c2.3,0,4.5,1.1,5.9,2.9c2.1,2.7,5.4,6.7,9.2,9.9c4.4,3.8,4,8.1,3.7,11.6c-0.2,1.9-0.3,3.6,0.2,5
				c0.3,0.8,0.7,1.5,1,2.2c1.7,3.4,3.5,7-2.1,14.2L163.3,48.3z"/>
		</g>
		<g>
			<path class="st2" d="M59.9,24.9v-8.3l0.5-0.3C60.9,15.9,73,8.1,85.3,8l1.2,0l-1,15.6L59.9,24.9z M62.1,17.8v4.8l21.3-1l0.8-11.4
				C74.2,10.7,64.3,16.4,62.1,17.8z"/>
		</g>
		<g>
			<path class="st2" d="M114.1,23.7H87.7l1-15.7h27.5L114.1,23.7z M90,21.5h22.2l1.5-11.3h-23L90,21.5z"/>
		</g>
		<g>
			<path class="st2" d="M116.6,23.7l1.8-15.9l24.9,3l12,9c0.4,0.3,0.6,0.9,0.4,1.4c-0.2,0.5-0.6,0.9-1.1,0.9L116.6,23.7z
				 M120.3,10.3l-1.3,11.2l32.9-1.5l-9.5-7.1L120.3,10.3z"/>
		</g>
		<g>
			<path class="st2" d="M109.1,45.3H65.7c-0.5,0-0.8,0.5-0.8,1.1v0.3c0,0.6,0.4,1.1,0.8,1.1h43.4c0.5,0,0.8-0.5,0.8-1.1v-0.3
				C110,45.7,109.6,45.3,109.1,45.3L109.1,45.3z"/>
		</g>
		<g>
			<path class="st2" d="M123,46.1h-1.7c0.1,1.3,0.7,2.6,1.5,3.6l1.2-1.2C123.5,47.8,123.1,47,123,46.1z"/>
			<path class="st2" d="M124,42.3l-1.2-1.2c-0.8,1-1.3,2.2-1.5,3.6h1.7C123.1,43.7,123.5,42.9,124,42.3z"/>
			<path class="st2" d="M125.1,41.2c0.7-0.5,1.5-0.8,2.3-1v-1.7c-1.3,0.1-2.6,0.7-3.6,1.5L125.1,41.2z"/>
			<path class="st2" d="M132.5,40c-1-0.8-2.2-1.3-3.6-1.5v1.7c0.9,0.1,1.7,0.5,2.3,1L132.5,40z"/>
			<path class="st2" d="M123.8,50.7c1,0.8,2.2,1.3,3.6,1.5v-1.7c-0.9-0.1-1.7-0.5-2.3-1L123.8,50.7z"/>
			<path class="st2" d="M132.3,48.4l1.2,1.2c0.8-1,1.3-2.2,1.5-3.6h-1.7C133.1,47,132.8,47.8,132.3,48.4z"/>
			<path class="st2" d="M132.3,42.3c0.5,0.7,0.8,1.5,1,2.3h1.7c-0.1-1.3-0.7-2.6-1.5-3.6L132.3,42.3z"/>
			<path class="st2" d="M128.9,50.5v1.7c1.3-0.1,2.6-0.7,3.6-1.5l-1.2-1.2C130.6,50,129.8,50.4,128.9,50.5z"/>
			<path class="st2" d="M128.1,32.7c-7,0-12.6,5.7-12.6,12.6c0,7,5.7,12.6,12.6,12.6c7,0,12.6-5.7,12.6-12.6
				C140.8,38.4,135.1,32.7,128.1,32.7z M128.1,55.5c-5.6,0-10.1-4.6-10.1-10.1s4.6-10.1,10.1-10.1c5.6,0,10.1,4.6,10.1,10.1
				S133.7,55.5,128.1,55.5z"/>
		</g>
		<g>
			<path class="st2" d="M41.6,46.1h-1.7c0.1,1.3,0.7,2.6,1.5,3.6l1.2-1.2C42.1,47.8,41.7,47,41.6,46.1z"/>
			<path class="st2" d="M42.6,42.3L41.3,41c-0.8,1-1.3,2.2-1.5,3.6h1.7C41.7,43.7,42.1,42.9,42.6,42.3z"/>
			<path class="st2" d="M43.6,41.2c0.7-0.5,1.5-0.8,2.3-1v-1.7c-1.3,0.1-2.6,0.7-3.6,1.5L43.6,41.2z"/>
			<path class="st2" d="M51,40c-1-0.8-2.2-1.3-3.6-1.5v1.7c0.9,0.1,1.7,0.5,2.3,1L51,40z"/>
			<path class="st2" d="M42.4,50.7c1,0.8,2.2,1.3,3.6,1.5v-1.7c-0.9-0.1-1.7-0.5-2.3-1L42.4,50.7z"/>
			<path class="st2" d="M50.9,48.4l1.2,1.2c0.8-1,1.3-2.2,1.5-3.6h-1.7C51.7,47,51.4,47.8,50.9,48.4z"/>
			<path class="st2" d="M50.9,42.3c0.5,0.7,0.8,1.5,1,2.3h1.7c-0.1-1.3-0.7-2.6-1.5-3.6L50.9,42.3z"/>
			<path class="st2" d="M47.5,50.5v1.7c1.3-0.1,2.6-0.7,3.6-1.5l-1.2-1.2C49.1,50,48.3,50.4,47.5,50.5z"/>
			<path class="st2" d="M46.7,32.7c-7,0-12.6,5.7-12.6,12.6c0,7,5.7,12.6,12.6,12.6c7,0,12.6-5.7,12.6-12.6
				C59.4,38.4,53.7,32.7,46.7,32.7z M46.7,55.5c-5.6,0-10.1-4.6-10.1-10.1s4.6-10.1,10.1-10.1s10.1,4.6,10.1,10.1
				S52.3,55.5,46.7,55.5z"/>
		</g>
		<g>
			<path class="st2" d="M75.8,30.1h3.9c1.3,0,2.4-1.1,2.4-2.4v-0.2h-8.6v0.2C73.4,29,74.4,30.1,75.8,30.1z"/>
			<path class="st2" d="M107.7,30.1c1.3,0,2.4-1.1,2.4-2.4v-0.2h-8.6v0.2c0,1.3,1.1,2.4,2.4,2.4H107.7z"/>
		</g>
		<g>
			<rect x="14.9" y="55.7" class="st2" width="19.5" height="2.3"/>
			<rect x="141" y="55.7" class="st2" width="21.8" height="2.3"/>
			<rect x="103.2" y="55.7" class="st2" width="11.5" height="2.3"/>
			<rect x="61.9" y="55.7" class="st2" width="35.2" height="2.3"/>
		</g>
	</g>
</g>
<g id="Classic" class="st0">
	<g class="st1">
		<path class="st2" d="M168.9,36.7c-1.1-2.9-5.1-5-6.9-5.9c-0.7-2.7-4.3-4.2-5.4-4.6c-13.1-10.7-27.2-18-41.7-21.5
			c-12-2.9-21.5-2.7-26.7-2.6c-0.9,0-1.7,0-2.3,0C77.6,2.1,69.3,6,67.2,8l-9.4,9.4c-3.2,0.3-27.1,2.9-36.9,5.2
			c-0.9,0.2-8.8,2.1-7.8,18.1H8.9v8.1h19.2V46H11.8v-2.4h4.5L16.1,42c-0.8-8.2,0.8-12.3,2.3-14.3c1.5-2,3.1-2.3,3.1-2.3l0.1,0
			c10.2-2.4,36.9-5.2,37.1-5.2l0.5-0.1L69.2,10c1.2-1.2,8.6-5.1,16.6-5.1c0.7,0,1.4,0,2.4,0c10-0.3,36.6-1,66.7,23.6l0.2,0.1
			l0.3,0.1c1.4,0.5,3.9,1.8,3.9,3l0,0.9l0.9,0.4c2.4,1,5.9,3.2,6.2,4.9l0.1,0.8l0.7,0.3c0.8,0.3,1.9,1.1,1.9,1.5
			c0,0.3-0.6,1.2-3.1,2.4c-7.7,3.6-22.4,2.6-22.5,2.6l-0.3,0l-0.2,2.8l0.3,0c0.6,0,15.6,1.1,23.9-2.8c3.2-1.5,4.8-3.2,4.7-5
			C171.9,38.5,170,37.3,168.9,36.7z"/>
		<path class="st2" d="M102,9.5c-0.1,0-13.8-0.2-19.5-0.2c-3.7,0-7.6,0.3-12.2,4.3c-4.4,3.9-6.6,7.2-6.7,7.3l-1.5,2.2h41.3V9.5
			L102,9.5z M67.6,20.3c1-1.2,2.5-2.8,4.5-4.6c3.8-3.3,7.1-3.6,10.3-3.6c0,0,0.1,0,0.1,0c4.7,0,14.6,0.1,18.1,0.2v8H67.6z"/>
		<path class="st2" d="M129.6,18.6c-0.5-0.9-2.3-2.6-5.7-4.3c-4.3-2.1-10-3.5-16.5-4.2l-1.6-0.2v13.3l19.7,1.2l0.4-0.3
			c0,0,1-0.7,2-1.6C129.1,21.5,130.3,20,129.6,18.6z M108.7,20.6V13c6.9,0.9,11.4,2.5,13.9,3.7c2.6,1.3,3.9,2.4,4.3,2.8
			c-0.3,0.5-1.2,1.2-2.2,2L108.7,20.6z"/>
		<g>
			<path class="st2" d="M106,45.7H64.6c-0.7,0-1.2,0.5-1.2,1.2v0.3c0,0.7,0.5,1.2,1.2,1.2H106c0.7,0,1.2-0.5,1.2-1.2v-0.3
				C107.2,46.2,106.6,45.7,106,45.7L106,45.7z"/>
		</g>
		<g>
			<g>
				<path class="st2" d="M40.3,46.7h-1.7c0.1,1.3,0.6,2.4,1.4,3.4l1.2-1.2C40.7,48.3,40.4,47.5,40.3,46.7z"/>
				<path class="st2" d="M41.2,43L40,41.8c-0.8,1-1.3,2.1-1.4,3.4h1.7C40.4,44.4,40.7,43.7,41.2,43z"/>
				<path class="st2" d="M42.2,42c0.6-0.5,1.4-0.8,2.2-0.9v-1.7c-1.3,0.1-2.4,0.6-3.4,1.4L42.2,42z"/>
				<path class="st2" d="M49.3,40.8c-1-0.8-2.1-1.3-3.4-1.4v1.7c0.8,0.1,1.6,0.4,2.2,0.9L49.3,40.8z"/>
				<path class="st2" d="M41,51.1c1,0.8,2.1,1.3,3.4,1.4v-1.7c-0.8-0.1-1.6-0.4-2.2-0.9L41,51.1z"/>
				<path class="st2" d="M49.1,48.9l1.2,1.2c0.8-1,1.3-2.1,1.4-3.4H50C49.9,47.5,49.6,48.3,49.1,48.9z"/>
				<path class="st2" d="M49.1,43c0.5,0.6,0.8,1.4,0.9,2.2h1.7c-0.1-1.3-0.6-2.4-1.4-3.4L49.1,43z"/>
				<path class="st2" d="M45.9,50.8v1.7c1.3-0.1,2.4-0.6,3.4-1.4l-1.2-1.2C47.5,50.4,46.7,50.7,45.9,50.8z"/>
				<path class="st2" d="M45.2,33.9c-6.7,0-12,5.4-12,12c0,6.7,5.4,12,12,12c6.7,0,12-5.4,12-12C57.2,39.3,51.8,33.9,45.2,33.9z
					 M45.2,55.6c-5.3,0-9.7-4.3-9.7-9.7s4.3-9.7,9.7-9.7c5.3,0,9.7,4.3,9.7,9.7S50.5,55.6,45.2,55.6z"/>
			</g>
			<g>
				<path class="st2" d="M120.6,46.7H119c0.1,1.3,0.6,2.4,1.4,3.4l1.2-1.2C121.1,48.3,120.8,47.5,120.6,46.7z"/>
				<path class="st2" d="M121.6,43l-1.2-1.2c-0.8,1-1.3,2.1-1.4,3.4h1.7C120.8,44.4,121.1,43.7,121.6,43z"/>
				<path class="st2" d="M122.6,42c0.6-0.5,1.4-0.8,2.2-0.9v-1.7c-1.3,0.1-2.4,0.6-3.4,1.4L122.6,42z"/>
				<path class="st2" d="M129.7,40.8c-1-0.8-2.1-1.3-3.4-1.4v1.7c0.8,0.1,1.6,0.4,2.2,0.9L129.7,40.8z"/>
				<path class="st2" d="M121.4,51.1c1,0.8,2.1,1.3,3.4,1.4v-1.7c-0.8-0.1-1.6-0.4-2.2-0.9L121.4,51.1z"/>
				<path class="st2" d="M129.5,48.9l1.2,1.2c0.8-1,1.3-2.1,1.4-3.4h-1.7C130.3,47.5,130,48.3,129.5,48.9z"/>
				<path class="st2" d="M129.5,43c0.5,0.6,0.8,1.4,0.9,2.2h1.7c-0.1-1.3-0.6-2.4-1.4-3.4L129.5,43z"/>
				<path class="st2" d="M126.3,50.8v1.7c1.3-0.1,2.4-0.6,3.4-1.4l-1.2-1.2C127.8,50.4,127.1,50.7,126.3,50.8z"/>
				<path class="st2" d="M125.5,33.9c-6.7,0-12,5.4-12,12c0,6.7,5.4,12,12,12c6.7,0,12-5.4,12-12C137.6,39.3,132.2,33.9,125.5,33.9z
					 M125.5,55.6c-5.3,0-9.7-4.3-9.7-9.7s4.3-9.7,9.7-9.7c5.3,0,9.7,4.3,9.7,9.7S130.9,55.6,125.5,55.6z"/>
			</g>
			<g>
				<path class="st2" d="M95.5,27.2h3.2c1.1,0,2-0.9,2-2V25h-7.2v0.2C93.5,26.3,94.3,27.2,95.5,27.2z"/>
			</g>
			<g>
				<rect x="57.4" y="55.6" class="st2" width="7.2" height="2.4"/>
				<rect x="8.1" y="55.6" class="st2" width="25.3" height="2.4"/>
				<rect x="140.4" y="55.6" class="st2" width="25.3" height="2.4"/>
				<rect x="104.3" y="55.6" class="st2" width="9.6" height="2.4"/>
				<rect x="68.2" y="55.6" class="st2" width="30.1" height="2.4"/>
			</g>
		</g>
	</g>
</g>
<g id="SUV">
	<g>
		<g>
			<path class="st3" d="M86.4,5.6h-8.2c-1,0-1.9,0.3-2.7,0.8l-11.9,7.3l2.4,0.8c0.3,0.1,1.1,0.5,1.5,0.8c0.3,0.3,0.6,1.7,0.3,2.1
				c-0.4,0.5-1.1,1-1.4,1.1L62,20.7h24.3c0.6,0,1.2-0.3,1.6-0.7c0.4-0.4,0.6-1,0.6-1.6l0.1-10.6c0-0.6-0.2-1.2-0.6-1.6
				C87.5,5.8,87,5.6,86.4,5.6z M69.8,18.3c0.7-1.5,0.2-3.8-0.8-4.8c-0.1-0.1-0.2-0.2-0.4-0.3l8-4.9c0.4-0.3,0.9-0.4,1.5-0.4h8.1
				l-0.1,10.4H69.8z"/>
			<path class="st3" d="M111.4,7.6c-0.1-1.1-1.1-2-2.2-2H91.9c-1.2,0-2.2,1-2.2,2.2v11.1c0,0.6,0.2,1.2,0.7,1.6
				c0.4,0.4,1,0.6,1.5,0.6l15.6-0.3c1.4,0,2.7-0.6,3.5-1.7c0.9-1,1.2-2.4,1-3.7L111.4,7.6z M92.1,7.9H109l0.7,7.7l0,0.1
				c0.1,0.7-0.1,1.4-0.5,1.9c-0.4,0.5-1.1,0.8-1.8,0.9l-15.4,0.3V7.9z M91.9,20.8L91.9,20.8L91.9,20.8L91.9,20.8z"/>
			<path class="st3" d="M162.4,30.5c0.2-10.3-1.1-14.2-2.9-19.6c-0.3-1-0.6-1.9-1-3c1.2-0.1,2.1-1.1,2.1-2.3V4.3
				c0-1.3-1-2.3-2.3-2.3H78c-1.4,0-2.8,0.4-3.9,1.1L49.9,17.3c-1.2,0.1-6.3,0.3-11.6,1c-8.5,1-13.5,2.3-15.3,4.1
				c-2.2,2.2-4,6.2-4.6,10.6c-0.7,4.7,1.1,9.7,2.3,10.9c0.8,0.8,1.8,1.3,2.5,1.6l0.4,0.7c0.6,1.1,1.8,1.8,3,1.8l4.2-0.1l-0.1-2.3
				l-4.3,0.1c-0.4,0-0.7-0.2-0.9-0.5l-0.8-1.6l-0.5-0.1c-0.1,0-1.3-0.4-1.9-1.1c-0.6-0.7-2.2-4.9-1.6-8.9c0.6-3.8,2.1-7.4,3.9-9.3
				c0.6-0.6,3.2-2.2,13.9-3.4c5.8-0.7,11.1-0.9,11.7-1l0.2,0L75.2,5.1C76.1,4.6,77,4.3,78,4.3l80.3,0l0,1.3h-2.9l0.4,1.5
				c0.5,1.8,1,3.2,1.4,4.6c1.7,5.3,3,9.1,2.7,19.8l0,1l2,0.3c0.2,0,0.3,0.2,0.3,0.4v7.2c0,0.2-0.1,0.4-0.3,0.4l-9.3,1.2l-0.2,0
				l-0.9,1.8c-0.1,0.1-0.2,0.2-0.3,0.2l-9.1,1.9l0.5,2.3l9.1-1.9c0.8-0.2,1.5-0.7,1.9-1.5l0.4-0.7l8.3-1.1c1.4-0.2,2.4-1.3,2.4-2.7
				v-7.2C164.7,31.9,163.8,30.8,162.4,30.5z"/>
			<path class="st3" d="M154.6,18.9c0.3-0.5,0.3-1,0.1-1.5l-3.3-10.3c-0.3-0.9-1.1-1.5-2.1-1.5H116c-0.7,0-1.4,0.4-1.8,0.9
				c-0.4,0.6-0.5,1.4-0.3,2l3.4,9l0,0.1c1,1.5,2.6,2.4,4.3,2.4h0l31.5-0.2C153.8,19.8,154.4,19.4,154.6,18.9z M152.3,17.4l-30.6,0.2
				c-0.9,0-1.8-0.4-2.3-1.2l-3.2-8.5h33L152.3,17.4z"/>
		</g>
		<g>
			<path class="st3" d="M64.7,48.5h43.4c0.4,0,0.7-0.5,0.7-1v-0.2c0-0.6-0.3-1-0.7-1H64.7c-0.4,0-0.7,0.5-0.7,1v0.2
				C64,48,64.3,48.5,64.7,48.5z"/>
			<g>
				<path class="st3" d="M42.9,46.9h-1.6c0.1,1.3,0.6,2.4,1.4,3.3l1.2-1.2C43.3,48.5,43,47.7,42.9,46.9z"/>
				<path class="st3" d="M43.8,43.3l-1.2-1.2c-0.7,0.9-1.2,2.1-1.4,3.3h1.6C43,44.7,43.3,44,43.8,43.3z"/>
				<path class="st3" d="M44.8,42.3c0.6-0.5,1.4-0.8,2.2-0.9v-1.6c-1.3,0.1-2.4,0.6-3.3,1.4L44.8,42.3z"/>
				<path class="st3" d="M51.7,41.2c-0.9-0.7-2.1-1.2-3.3-1.4v1.6c0.8,0.1,1.5,0.4,2.2,0.9L51.7,41.2z"/>
				<path class="st3" d="M43.6,51.2c0.9,0.7,2.1,1.2,3.3,1.4V51c-0.8-0.1-1.5-0.4-2.2-0.9L43.6,51.2z"/>
				<path class="st3" d="M51.5,49.1l1.2,1.2c0.7-0.9,1.2-2.1,1.4-3.3h-1.6C52.3,47.7,52,48.5,51.5,49.1z"/>
				<path class="st3" d="M51.5,43.3c0.5,0.6,0.8,1.4,0.9,2.2h1.6c-0.1-1.3-0.6-2.4-1.4-3.3L51.5,43.3z"/>
				<path class="st3" d="M48.4,51v1.6c1.3-0.1,2.4-0.6,3.3-1.4l-1.2-1.2C49.9,50.6,49.2,50.9,48.4,51z"/>
				<path class="st3" d="M47.6,34.4c-6.5,0-11.8,5.3-11.8,11.8c0,6.5,5.3,11.8,11.8,11.8c6.5,0,11.8-5.3,11.8-11.8
					C59.4,39.7,54.2,34.4,47.6,34.4z M47.6,55.7c-5.2,0-9.5-4.2-9.5-9.5s4.2-9.5,9.5-9.5c5.2,0,9.5,4.2,9.5,9.5S52.9,55.7,47.6,55.7
					z"/>
			</g>
			<g>
				<path class="st3" d="M121.1,46.9h-1.6c0.1,1.3,0.6,2.4,1.4,3.3l1.2-1.2C121.6,48.5,121.2,47.7,121.1,46.9z"/>
				<path class="st3" d="M122,43.3l-1.2-1.2c-0.7,0.9-1.2,2.1-1.4,3.3h1.6C121.2,44.7,121.6,44,122,43.3z"/>
				<path class="st3" d="M123,42.3c0.6-0.5,1.4-0.8,2.2-0.9v-1.6c-1.3,0.1-2.4,0.6-3.3,1.4L123,42.3z"/>
				<path class="st3" d="M129.9,41.2c-0.9-0.7-2.1-1.2-3.3-1.4v1.6c0.8,0.1,1.5,0.4,2.2,0.9L129.9,41.2z"/>
				<path class="st3" d="M121.9,51.2c0.9,0.7,2.1,1.2,3.3,1.4V51c-0.8-0.1-1.5-0.4-2.2-0.9L121.9,51.2z"/>
				<path class="st3" d="M129.8,49.1l1.2,1.2c0.7-0.9,1.2-2.1,1.4-3.3h-1.6C130.6,47.7,130.2,48.5,129.8,49.1z"/>
				<path class="st3" d="M129.8,43.3c0.5,0.6,0.8,1.4,0.9,2.2h1.6c-0.1-1.3-0.6-2.4-1.4-3.3L129.8,43.3z"/>
				<path class="st3" d="M126.6,51v1.6c1.3-0.1,2.4-0.6,3.3-1.4l-1.2-1.2C128.2,50.6,127.4,50.9,126.6,51z"/>
				<path class="st3" d="M125.9,34.4c-6.5,0-11.8,5.3-11.8,11.8c0,6.5,5.3,11.8,11.8,11.8c6.5,0,11.8-5.3,11.8-11.8
					C137.7,39.7,132.4,34.4,125.9,34.4z M125.9,55.7c-5.2,0-9.5-4.2-9.5-9.5s4.2-9.5,9.5-9.5s9.5,4.2,9.5,9.5S131.1,55.7,125.9,55.7
					z"/>
			</g>
			<g>
				<path class="st3" d="M79.3,24.4h2.8c1,0,1.7-0.8,1.7-1.7v-0.2h-6.3v0.2C77.6,23.6,78.4,24.4,79.3,24.4z"/>
				<path class="st3" d="M105.7,25.5c1,0,1.7-0.8,1.7-1.7v-0.2h-6.3v0.2c0,1,0.8,1.7,1.7,1.7H105.7z"/>
			</g>
			<g>
				<rect x="59.8" y="55.8" class="st3" width="6.7" height="2.2"/>
				<rect x="15.3" y="55.8" class="st3" width="20" height="2.2"/>
				<rect x="137.7" y="55.8" class="st3" width="24.5" height="2.2"/>
				<rect x="108.8" y="55.8" class="st3" width="5.6" height="2.2"/>
				<rect x="72" y="55.8" class="st3" width="34.2" height="2.2"/>
			</g>
		</g>
	</g>
</g>
<g id="Utility" class="st0">
	<g class="st1">
		<path class="st3" d="M13.9,48.9h1v-2.7h-1c-4.8,0-5.6-0.1-6.3-2c-0.4-1.1-0.4-2.1,0-2.9c0.6-1.2,2.1-1.7,2.2-1.7l1.4-0.4l-0.4-1.3
			c-1.3-3.9-1.3-6.9,0-8.9c1.2-1.9,3.6-3.2,7.1-3.7c7.1-1,30.5-3.1,30.7-3.1l0.5,0l0.3-0.3C68.5,4.6,76.6,4.7,86.9,4.7l1.7,0
			c11.6,0,12,1.1,12,5.8v11.6h68.8l-0.5,18.2l1.6-0.2c0.7-0.1,1.6-0.1,2,0.4c0.7,1,0,3.9-1,6.2h-15.6v2.7h17.3l0.4-0.7
			c0.6-1.1,3.2-6.8,1.1-9.7c-0.7-0.9-1.7-1.4-3-1.5l0.5-17.9h-68.8v-8.9c0-3.3-0.5-5.7-3.2-7.1C97.8,2.2,94.2,2,88.6,2l-1.7,0
			c-5.2,0-10.2,0-16.3,2.2c-6.5,2.4-13.7,7.3-22.7,15.3c-4.2,0.4-23.9,2.1-30.4,3c-4.4,0.6-7.4,2.3-9.1,4.9c-1.6,2.5-1.8,5.9-0.6,10
			C7,38,5.9,38.8,5.3,40c-0.8,1.4-0.8,3.1-0.2,5C6.3,48.9,9.2,48.9,13.9,48.9z"/>
		<path class="st3" d="M93.9,7.5l0-0.3l-13.8,0l-0.1,0c-9.5,1.1-18.8,8.2-19.2,8.5l-0.5,0.4v9.2h32.4L93.9,7.5z M90.1,22.6H63v-5.1
			c1.8-1.3,9.7-6.7,17.2-7.5H91L90.1,22.6z"/>
		<path class="st3" d="M53.6,47.4v0.2c0,0.6,0.5,1.2,1.2,1.2h59.7c0.6,0,1.2-0.5,1.2-1.2v-0.2c0-0.6-0.5-1.2-1.2-1.2H54.8
			C54.1,46.3,53.6,46.8,53.6,47.4z"/>
		<path class="st3" d="M29.4,46.6h-1.7c0.1,1.3,0.7,2.5,1.4,3.4l1.2-1.2C29.8,48.2,29.5,47.4,29.4,46.6z"/>
		<path class="st3" d="M30.3,42.9l-1.2-1.2c-0.8,1-1.3,2.1-1.4,3.4h1.7C29.5,44.3,29.8,43.5,30.3,42.9z"/>
		<path class="st3" d="M31.3,41.8c0.6-0.5,1.4-0.8,2.2-0.9v-1.7c-1.3,0.1-2.5,0.7-3.4,1.4L31.3,41.8z"/>
		<path class="st3" d="M38.4,40.7c-1-0.8-2.1-1.3-3.4-1.4v1.7c0.8,0.1,1.6,0.4,2.2,0.9L38.4,40.7z"/>
		<path class="st3" d="M30.1,51c1,0.8,2.1,1.3,3.4,1.4v-1.7c-0.8-0.1-1.6-0.4-2.2-0.9L30.1,51z"/>
		<path class="st3" d="M38.3,48.8l1.2,1.2c0.8-1,1.3-2.1,1.4-3.4h-1.7C39.1,47.4,38.8,48.2,38.3,48.8z"/>
		<path class="st3" d="M38.3,42.9c0.5,0.6,0.8,1.4,0.9,2.2h1.7c-0.1-1.3-0.7-2.5-1.4-3.4L38.3,42.9z"/>
		<path class="st3" d="M35,50.8v1.7c1.3-0.1,2.5-0.7,3.4-1.4l-1.2-1.2C36.6,50.3,35.9,50.7,35,50.8z"/>
		<path class="st3" d="M34.3,33.7c-6.7,0-12.2,5.4-12.2,12.2c0,6.7,5.4,12.2,12.2,12.2c6.7,0,12.2-5.4,12.2-12.2
			C46.4,39.1,41,33.7,34.3,33.7z M34.3,55.6c-5.4,0-9.8-4.4-9.8-9.8c0-5.4,4.4-9.8,9.8-9.8s9.8,4.4,9.8,9.8
			C44,51.2,39.7,55.6,34.3,55.6z"/>
		<path class="st3" d="M130.8,46.6h-1.7c0.1,1.3,0.7,2.5,1.4,3.4l1.2-1.2C131.3,48.2,130.9,47.4,130.8,46.6z"/>
		<path class="st3" d="M131.7,42.9l-1.2-1.2c-0.8,1-1.3,2.1-1.4,3.4h1.7C130.9,44.3,131.3,43.5,131.7,42.9z"/>
		<path class="st3" d="M132.8,41.8c0.6-0.5,1.4-0.8,2.2-0.9v-1.7c-1.3,0.1-2.5,0.7-3.4,1.4L132.8,41.8z"/>
		<path class="st3" d="M139.9,40.7c-1-0.8-2.1-1.3-3.4-1.4v1.7c0.8,0.1,1.6,0.4,2.2,0.9L139.9,40.7z"/>
		<path class="st3" d="M131.6,51c1,0.8,2.1,1.3,3.4,1.4v-1.7c-0.8-0.1-1.6-0.4-2.2-0.9L131.6,51z"/>
		<path class="st3" d="M139.7,48.8l1.2,1.2c0.8-1,1.3-2.1,1.4-3.4h-1.7C140.6,47.4,140.2,48.2,139.7,48.8z"/>
		<path class="st3" d="M139.7,42.9c0.5,0.6,0.8,1.4,0.9,2.2h1.7c-0.1-1.3-0.7-2.5-1.4-3.4L139.7,42.9z"/>
		<path class="st3" d="M136.5,50.8v1.7c1.3-0.1,2.5-0.7,3.4-1.4l-1.2-1.2C138.1,50.3,137.3,50.7,136.5,50.8z"/>
		<path class="st3" d="M135.7,33.7c-6.7,0-12.2,5.4-12.2,12.2c0,6.7,5.4,12.2,12.2,12.2c6.7,0,12.2-5.4,12.2-12.2
			C147.9,39.1,142.5,33.7,135.7,33.7z M135.7,55.6c-5.4,0-9.8-4.4-9.8-9.8c0-5.4,4.4-9.8,9.8-9.8c5.4,0,9.8,4.4,9.8,9.8
			C145.5,51.2,141.1,55.6,135.7,55.6z"/>
		<path class="st3" d="M83.3,31.3h3.9c1.3,0,2.4-1.1,2.4-2.4v-0.2h-8.8v0.2C80.8,30.2,81.9,31.3,83.3,31.3z"/>
		<rect x="46.7" y="55.8" class="st3" width="15.4" height="2.2"/>
		<rect x="5.9" y="55.8" class="st3" width="15.7" height="2.2"/>
		<rect x="148.4" y="55.8" class="st3" width="26.4" height="2.2"/>
		<rect x="109.5" y="55.8" class="st3" width="13.8" height="2.2"/>
		<rect x="69.8" y="55.8" class="st3" width="33.9" height="2.2"/>
	</g>
</g>
<g id="Convertibles" class="st0">
	<g id="_x31_0_1_" class="st1">
		<path class="st3" d="M166.7,25.6l-0.8-0.7c-0.1-0.1-0.2-0.3-0.3-0.4c-0.4-2-1.5-6.9-2-9l-0.1-0.3c-0.4-1.9-2.8-2.5-5.4-2.9
			c-1.7-0.3-3.6-0.4-5.7-0.6c-1.8-0.2-3.6-0.3-5.2-0.6l-4.1-1.7c-0.9-0.4-1.8-0.5-2.8-0.4l-4.7,0.6c-1.1,0.1-2.1,0.6-2.9,1.3
			l-1.8,1.5l-22.5,0.8l0.2-0.5c0.5-1.3,0-2.7-1.2-3.4l-3.3-1.9C103.6,7,103,7,102.4,7.1c-0.6,0.2-1.1,0.6-1.4,1.1l-2.9,5.1
			c-0.1,0.2-0.4,0.4-0.6,0.4L73,14.4l11.9-7.3c1.1-0.7,1.6-2,1.2-3.2c-0.3-0.8-0.8-1.4-1.6-1.7c-0.7-0.3-1.6-0.3-2.3,0.1L59.5,13.6
			c-0.1,0.1-0.2,0.1-0.3,0.1c-2.2,0.2-10.1,0.8-18.8,2c-11.4,1.6-19.2,3.7-23.1,6c-0.7,0.4-1.3,1.1-1.5,2l-2.4,8.6
			c0,0.2-0.4,1.8-0.4,3.7c-0.1,1.9,0.2,3.4,0.8,4.4l-1,1c-0.5,0.5-0.7,1.2-0.4,1.9c0.2,0.7,0.8,1.1,1.5,1.2
			c2.8,0.4,12.6,1.6,18.9,1.6h0.6v-2.7h-0.6c-5.2,0-12.9-0.9-16.9-1.4l1.9-1.9l-1.5-0.9c-0.7-0.4-0.8-3.5-0.3-6.4l2.4-8.4
			c0-0.2,0.2-0.3,0.3-0.4c8.9-5.3,37.5-7.4,40.8-7.7c0.5,0,0.9-0.2,1.3-0.4L83.4,4.7l0,0.2l-15.6,9.6c-0.6,0.4-0.8,1.1-0.7,1.7
			c0.2,0.7,0.8,1.1,1.5,1.1l28.9-0.8c1.2,0,2.3-0.7,2.9-1.7l2.7-4.8l3,1.8c0,0,0.1,0.1,0,0.1l-0.6,1.7c-0.2,0.6-0.1,1.2,0.2,1.7
			c0.3,0.5,0.9,0.8,1.5,0.7l24.8-0.9l2.5-2.1c0.4-0.4,0.9-0.6,1.5-0.6l4.7-0.6c0.5-0.1,1,0,1.4,0.2l4.3,1.8l0.2,0.1
			c1.7,0.2,3.6,0.4,5.5,0.6c2,0.2,3.9,0.4,5.5,0.6c2.4,0.4,3.1,0.8,3.2,0.9l0.1,0.2c0.4,2.1,1.5,7,2,9c0.2,0.8,0.6,1.5,1.2,1.9
			l0.8,0.7c0.2,0.1,0.3,0.4,0.3,0.6v6.9c0,0.5-0.3,0.9-0.7,1l-14.2,4.9l0.9,2.5l14.2-4.9c1.5-0.5,2.6-2,2.6-3.6v-6.9
			C168,27.3,167.5,26.3,166.7,25.6z"/>
		<g>
			<path class="st3" d="M26.2,30.1c-0.3-0.3-0.4-0.8-0.3-1.2l1.4-3.9c0.1-0.4,0.5-0.6,0.9-0.7l9.9-1.7c0.3-0.1,0.6,0,0.9,0.2
				c0.2,0.2,0.4,0.5,0.4,0.8v1.5c0,0.5-0.3,0.9-0.7,1l-11.4,4.1c-0.1,0-0.3,0.1-0.4,0.1C26.7,30.5,26.4,30.3,26.2,30.1z M26.8,29
				L26.8,29L26.8,29z M37.9,24.2l-9.2,1.5l-1,2.9L37.9,25V24.2z"/>
		</g>
		<g>
			<path class="st3" d="M160.1,25c-1.6-1-4.9-3.2-6.2-5.1c-0.2-0.2,0-0.6,0.3-0.6l4.3-0.7c0.2,0,0.4,0.1,0.4,0.3l1.8,5.7
				C160.8,24.9,160.4,25.2,160.1,25z"/>
		</g>
		<g>
			<path class="st3" d="M160.1,12c2.7,0.4,3.8,1.4,4,2.3c0,0.1,0,0.2,0.1,0.3c0.3,0.1,0.8,0,0.8-0.5c0.3-1.4,0.4-3.6,0.4-4.7
				c0-0.3-0.3-0.6-0.6-0.6h-3c-0.2,0-0.5,0.1-0.6,0.4L160.1,12z"/>
		</g>
		<g>
			<path class="st3" d="M19.5,32.9c-0.2-0.2-0.2-0.5-0.2-0.8l0.8-3.3c0.1-0.4,0.5-0.7,0.9-0.7h1.5c0.3,0,0.5,0.1,0.7,0.3
				c0.2,0.2,0.2,0.5,0.2,0.8l-0.8,3.3c-0.1,0.4-0.5,0.7-0.9,0.7h-1.5C19.9,33.2,19.7,33.1,19.5,32.9z M21.7,29.7h-0.2l-0.5,2h0.2
				L21.7,29.7z"/>
		</g>
		<g>
			<path class="st3" d="M22.3,27.2H23c0.4,0,0.8-0.3,1-0.7l0.6-1.6c0.1-0.3,0.1-0.7-0.1-1c-0.2-0.3-0.5-0.5-0.9-0.5H23
				c-0.4,0-0.8,0.3-1,0.7l-0.6,1.6c-0.1,0.3-0.1,0.7,0.1,1C21.6,27,22,27.2,22.3,27.2z"/>
		</g>
		<g>
			<path class="st3" d="M69.7,48h46.9c-0.6,0-0.1-0.6-0.1-1.3v-0.3c0-0.7-0.5-1.3-1-1.3H68.5c-0.6,0-1,0.6-1,1.3v0.3
				C67.5,47.4,67.9,48,69.7,48z"/>
			<g>
				<path class="st3" d="M45,46.1h-1.7c0.1,1.3,0.7,2.6,1.5,3.6l1.2-1.2C45.5,47.8,45.2,47,45,46.1z"/>
				<path class="st3" d="M46,42.3L44.8,41c-0.8,1-1.3,2.2-1.5,3.6H45C45.2,43.7,45.5,42.9,46,42.3z"/>
				<path class="st3" d="M47.1,41.2c0.7-0.5,1.5-0.8,2.3-1v-1.7c-1.3,0.1-2.6,0.7-3.6,1.5L47.1,41.2z"/>
				<path class="st3" d="M54.5,40c-1-0.8-2.2-1.3-3.6-1.5v1.7c0.9,0.1,1.7,0.5,2.3,1L54.5,40z"/>
				<path class="st3" d="M45.9,50.8c1,0.8,2.2,1.3,3.6,1.5v-1.7c-0.9-0.1-1.7-0.5-2.3-1L45.9,50.8z"/>
				<path class="st3" d="M54.3,48.4l1.2,1.2c0.8-1,1.3-2.2,1.5-3.6h-1.7C55.2,47,54.8,47.8,54.3,48.4z"/>
				<path class="st3" d="M54.3,42.3c0.5,0.7,0.8,1.5,1,2.3h1.7c-0.1-1.3-0.7-2.6-1.5-3.6L54.3,42.3z"/>
				<path class="st3" d="M50.9,50.5v1.7c1.3-0.1,2.6-0.7,3.6-1.5l-1.2-1.2C52.6,50,51.8,50.4,50.9,50.5z"/>
				<path class="st3" d="M50.2,32.7c-7,0-12.6,5.7-12.6,12.6c0,7,5.7,12.6,12.6,12.6c7,0,12.6-5.7,12.6-12.6
					C62.8,38.4,57.2,32.7,50.2,32.7z M50.2,55.5C44.6,55.5,40,51,40,45.4s4.6-10.1,10.1-10.1c5.6,0,10.1,4.6,10.1,10.1
					S55.8,55.5,50.2,55.5z"/>
			</g>
			<g>
				<path class="st3" d="M128.7,46.1H127c0.1,1.3,0.7,2.6,1.5,3.6l1.2-1.2C129.2,47.8,128.9,47,128.7,46.1z"/>
				<path class="st3" d="M129.7,42.3l-1.2-1.2c-0.8,1-1.3,2.2-1.5,3.6h1.7C128.9,43.7,129.2,42.9,129.7,42.3z"/>
				<path class="st3" d="M130.8,41.2c0.7-0.5,1.5-0.8,2.3-1v-1.7c-1.3,0.1-2.6,0.7-3.6,1.5L130.8,41.2z"/>
				<path class="st3" d="M138.2,40c-1-0.8-2.2-1.3-3.6-1.5v1.7c0.9,0.1,1.7,0.5,2.3,1L138.2,40z"/>
				<path class="st3" d="M129.5,50.8c1,0.8,2.2,1.3,3.6,1.5v-1.7c-0.9-0.1-1.7-0.5-2.3-1L129.5,50.8z"/>
				<path class="st3" d="M138,48.4l1.2,1.2c0.8-1,1.3-2.2,1.5-3.6H139C138.9,47,138.5,47.8,138,48.4z"/>
				<path class="st3" d="M138,42.3c0.5,0.7,0.8,1.5,1,2.3h1.7c-0.1-1.3-0.7-2.6-1.5-3.6L138,42.3z"/>
				<path class="st3" d="M134.6,50.5v1.7c1.3-0.1,2.6-0.7,3.6-1.5l-1.2-1.2C136.3,50,135.5,50.4,134.6,50.5z"/>
				<path class="st3" d="M133.9,32.7c-7,0-12.6,5.7-12.6,12.6c0,7,5.7,12.6,12.6,12.6c7,0,12.6-5.7,12.6-12.6
					C146.5,38.4,140.8,32.7,133.9,32.7z M133.9,55.5c-5.6,0-10.1-4.6-10.1-10.1s4.6-10.1,10.1-10.1c5.6,0,10.1,4.6,10.1,10.1
					S139.5,55.5,133.9,55.5z"/>
			</g>
			<g>
				<path class="st3" d="M87.4,24.4h4.1c1.4,0,2.5-1.1,2.5-2.5v-0.2h-9.2v0.2C84.8,23.2,86,24.4,87.4,24.4z"/>
				<path class="st3" d="M114.4,24.4c1.4,0,2.5-1.1,2.5-2.5v-0.2h-9.2v0.2c0,1.4,1.1,2.5,2.5,2.5H114.4z"/>
			</g>
			<g>
				<rect x="63.1" y="55.7" class="st3" width="11.5" height="2.3"/>
				<rect x="113.5" y="55.7" class="st3" width="8" height="2.3"/>
				<rect x="13.8" y="55.7" class="st3" width="24.1" height="2.3"/>
				<rect x="146.7" y="55.7" class="st3" width="19.5" height="2.3"/>
				<rect x="82.6" y="55.7" class="st3" width="21.8" height="2.3"/>
			</g>
		</g>
	</g>
</g>
<g id="Coupe" class="st0">
	<g id="_x31_1_1_" class="st1">
		<g>
			<path class="st3" d="M159.5,46.6l-6.4-2.6v-0.4l2.9-0.3c1.3-0.1,2.4-1.3,2.4-2.6c0-1.4-1.2-2.6-2.6-2.6h-4.8l-0.2-3h1.7l-1.6-4.9
				h-6.2c-1.1-1.9-4.4-7.3-9.9-12.9c-3.9-4-8-7.2-12.3-9.6c-5.4-3-11.1-4.7-16.8-5.1l-1.4-0.1c-4.4-0.3-11-0.7-17.3-0.3
				c-7.8,0.4-13,1.8-15.8,4.2c-8.7,6.8-9,7-15.1,12.6c-1.6,0.1-8,0.6-14.5,1.8c-10.5,2-16.6,5.1-18.1,9.1l-0.6,1.7H29l-0.6,1.4h-6.6
				V44l-2.1,5.4h12.5v-2.5h-8.8l0.9-2.3l0-9.2h5.8l2.5-6.4h-5.8c2.3-2.4,7.5-4.4,15.1-5.8c7.3-1.4,14.3-1.8,14.6-1.8l0.4,0l0.3-0.3
				c6.4-5.9,6.4-5.9,15.4-12.9c5.6-4.8,23-3.8,31.5-3.3l1.3,0.1c12.2,0.7,21.7,7.9,27.5,13.9c6.3,6.5,9.8,12.9,9.8,13l0.3,0.7h5.9
				l0,0h-1l0.6,8h7.1c0.1,0,0.2,0.1,0.2,0.2c0,0.1-0.1,0.1-0.1,0.2l-4.5,0.5l-0.7,0.7v3.7l2.5,1l-11.6,0l0,2.5l17.5,0
				c0.6,0,1.2-0.5,1.3-1.1C160.4,47.4,160,46.8,159.5,46.6z"/>
			<path class="st3" d="M124.8,16.5c-2.2-3.3-6.1-6.1-10.4-7.5c-6.8-2.2-14.7-2.3-15-2.4l-1.3,0v14.9h22.4c0.2,0,0.5,0.1,1,0.1
				c1,0,2.4-0.2,3.2-1.2c0.7-0.9,0.8-2.1,0.2-3.7L124.8,16.5z M122.8,18.8c-0.2,0.3-1.2,0.4-2,0.2l-20.2,0V9.1
				c2.3,0.1,8.1,0.6,13,2.2c3.8,1.2,7.1,3.6,9.1,6.5C123,18.4,122.9,18.8,122.8,18.8z"/>
			<path class="st3" d="M75.8,9c-3.7,1.5-7.3,4.2-10.7,7.9c-0.4,0.5-1.7,1.8-1,3.2c0.4,0.9,1.4,1.4,2.7,1.4h30.1l0.4-14.9H96
				C88.9,6.6,81.5,6.6,75.8,9z M94.7,9.1l-0.3,10H66.8c-0.1,0-0.2,0-0.2,0c0.1-0.1,0.2-0.3,0.4-0.5c3.2-3.5,6.5-5.9,9.8-7.3
				C81.8,9.2,88.9,9.1,94.7,9.1z"/>
		</g>
		<g>
			<path class="st3" d="M64.1,49h45.4c0.6,0,1.1-0.5,1.1-1.2v-0.2c0-0.7-0.5-1.2-1.1-1.2H64.1c-0.6,0-1.1,0.5-1.1,1.2v0.2
				C63,48.4,63.5,49,64.1,49z"/>
			<g>
				<path class="st3" d="M43.5,47.3h-1.6c0.1,1.2,0.6,2.3,1.3,3.2l1.1-1.1C43.9,48.8,43.6,48.1,43.5,47.3z"/>
				<path class="st3" d="M44.3,43.8l-1.1-1.1c-0.7,0.9-1.2,2-1.3,3.2h1.6C43.6,45.2,43.9,44.4,44.3,43.8z"/>
				<path class="st3" d="M45.3,42.9c0.6-0.5,1.3-0.8,2.1-0.9v-1.6c-1.2,0.1-2.3,0.6-3.2,1.3L45.3,42.9z"/>
				<path class="st3" d="M52,41.8c-0.9-0.7-2-1.2-3.2-1.3V42c0.8,0.1,1.5,0.4,2.1,0.9L52,41.8z"/>
				<path class="st3" d="M44.2,51.5c0.9,0.7,2,1.2,3.2,1.3v-1.6c-0.8-0.1-1.5-0.4-2.1-0.9L44.2,51.5z"/>
				<path class="st3" d="M51.8,49.4l1.1,1.1c0.7-0.9,1.2-2,1.3-3.2h-1.6C52.6,48.1,52.3,48.8,51.8,49.4z"/>
				<path class="st3" d="M51.8,43.8c0.5,0.6,0.8,1.3,0.9,2.1h1.6c-0.1-1.2-0.6-2.3-1.3-3.2L51.8,43.8z"/>
				<path class="st3" d="M48.8,51.2v1.6c1.2-0.1,2.3-0.6,3.2-1.3l-1.1-1.1C50.3,50.8,49.5,51.1,48.8,51.2z"/>
				<path class="st3" d="M48.1,35.2c-6.3,0-11.4,5.1-11.4,11.4c0,6.3,5.1,11.4,11.4,11.4c6.3,0,11.4-5.1,11.4-11.4
					C59.5,40.3,54.4,35.2,48.1,35.2z M48.1,55.8c-5,0-9.1-4.1-9.1-9.1s4.1-9.1,9.1-9.1c5,0,9.1,4.1,9.1,9.1S53.1,55.8,48.1,55.8z"/>
			</g>
			<g>
				<path class="st3" d="M121.9,47.3h-1.6c0.1,1.2,0.6,2.3,1.3,3.2l1.1-1.1C122.3,48.8,122,48.1,121.9,47.3z"/>
				<path class="st3" d="M122.8,43.8l-1.1-1.1c-0.7,0.9-1.2,2-1.3,3.2h1.6C122,45.2,122.3,44.4,122.8,43.8z"/>
				<path class="st3" d="M123.7,42.9c0.6-0.5,1.3-0.8,2.1-0.9v-1.6c-1.2,0.1-2.3,0.6-3.2,1.3L123.7,42.9z"/>
				<path class="st3" d="M130.4,41.8c-0.9-0.7-2-1.2-3.2-1.3V42c0.8,0.1,1.5,0.4,2.1,0.9L130.4,41.8z"/>
				<path class="st3" d="M122.6,51.5c0.9,0.7,2,1.2,3.2,1.3v-1.6c-0.8-0.1-1.5-0.4-2.1-0.9L122.6,51.5z"/>
				<path class="st3" d="M130.3,49.4l1.1,1.1c0.7-0.9,1.2-2,1.3-3.2h-1.6C131,48.1,130.7,48.8,130.3,49.4z"/>
				<path class="st3" d="M130.3,43.8c0.5,0.6,0.8,1.3,0.9,2.1h1.6c-0.1-1.2-0.6-2.3-1.3-3.2L130.3,43.8z"/>
				<path class="st3" d="M127.2,51.2v1.6c1.2-0.1,2.3-0.6,3.2-1.3l-1.1-1.1C128.7,50.8,128,51.1,127.2,51.2z"/>
				<path class="st3" d="M126.5,35.2c-6.3,0-11.4,5.1-11.4,11.4c0,6.3,5.1,11.4,11.4,11.4c6.3,0,11.4-5.1,11.4-11.4
					C137.9,40.3,132.8,35.2,126.5,35.2z M126.5,55.8c-5,0-9.1-4.1-9.1-9.1s4.1-9.1,9.1-9.1c5,0,9.1,4.1,9.1,9.1
					S131.5,55.8,126.5,55.8z"/>
			</g>
			<g>
				<path class="st3" d="M87.8,28.8h3.7c1.3,0,2.3-1,2.3-2.3v-0.2h-8.3v0.2C85.5,27.7,86.5,28.8,87.8,28.8z"/>
				<path class="st3" d="M105.9,28.8c1.3,0,2.3-1,2.3-2.3v-0.2h-8.3v0.2c0,1.3,1,2.3,2.3,2.3H105.9z"/>
			</g>
			<g>
				<rect x="59.7" y="55.9" class="st3" width="9.3" height="2.1"/>
				<rect x="20.5" y="55.9" class="st3" width="16.5" height="2.1"/>
				<rect x="138.1" y="55.9" class="st3" width="20.6" height="2.1"/>
				<rect x="104.1" y="55.9" class="st3" width="11.4" height="2.1"/>
				<rect x="76.2" y="55.9" class="st3" width="20.6" height="2.1"/>
			</g>
		</g>
	</g>
</g>
<g id="Van" class="st0">
	<g id="_x31_2_1_" class="st1">
		<g>
			<g>
				<path class="st3" d="M76.5,18.9V8.4c0-1.6-1.3-2.9-2.9-2.9H61.3c-1,0-1.9,0.5-2.4,1.3l-7,10.5c-0.6,0.9-0.7,2-0.1,3
					c0.5,0.9,1.5,1.5,2.6,1.5h19.2C75.2,21.8,76.5,20.5,76.5,18.9z M74.1,8.4v10.5c0,0.3-0.3,0.6-0.6,0.6H54.3
					c-0.2,0-0.4-0.1-0.5-0.3c-0.1-0.2-0.1-0.4,0-0.6l7-10.5c0.1-0.2,0.3-0.3,0.5-0.3h12.2C73.9,7.8,74.1,8.1,74.1,8.4z"/>
				<path class="st3" d="M110.4,46.9c0,0.3-0.3,0.6-0.6,0.6h-35v2.3h35c1.6,0,2.9-1.3,2.9-2.9v-0.5h-2.3V46.9z"/>
				<path class="st3" d="M148.6,36.1l-0.9-0.9v-7.6l0-0.1c-0.1-0.6-0.8-6.5-2.1-12.3C143.1,3.6,141,2,139.2,2H59.6
					c-0.9,0-1.8,0.5-2.4,1.2l-12,17.2c-2.6,2.1-4.3,4.2-5.6,6.8l-1.3,3.5l0,0.1c-0.4,1.4-0.6,2.8-0.7,4.3l-1,1
					c-0.5,0.5-0.9,1.3-0.9,2.1v3.5c0,0.8,0.3,1.5,0.9,2.1l0.9,0.9v2.3c0,1.6,1.3,2.9,2.9,2.9h7c1.6,0,2.9-1.3,2.9-2.9v-0.5h-2.3v0.5
					c0,0.3-0.3,0.6-0.6,0.6h-7c-0.3,0-0.6-0.3-0.6-0.6v-3.3l-1.6-1.6C38,41.9,38,41.8,38,41.6v-3.5c0-0.2,0.1-0.3,0.2-0.4l1.6-1.6
					l0-0.4c0.1-1.5,0.3-2.8,0.7-4.2l1.3-3.4c1.1-2.2,2.7-4.1,5.1-6.1L59.1,4.6c0.1-0.2,0.3-0.3,0.5-0.3l79.6,0c0,0,1.8,0.5,4.1,11.3
					c1.2,5.8,2,11.9,2,12.1v8.5l1.6,1.6c0.1,0.1,0.2,0.3,0.2,0.4v3.5c0,0.2-0.1,0.3-0.2,0.4l-1.6,1.6v3.3c0,0.3-0.3,0.6-0.6,0.6
					h-7.5v2.3h7.5c1.6,0,2.9-1.3,2.9-2.9v-2.3l0.9-0.9c0.5-0.5,0.9-1.3,0.9-2.1v-3.5C149.4,37.4,149.1,36.6,148.6,36.1z"/>
			</g>
			<g class="st0">
				<path class="st4" d="M62.3,40.8c4.3,0,7.9,3.5,7.9,7.9s-3.5,7.9-7.9,7.9s-7.9-3.5-7.9-7.9S58,40.8,62.3,40.8 M62.3,39.5
					c-5.1,0-9.2,4.1-9.2,9.2s4.1,9.2,9.2,9.2s9.2-4.1,9.2-9.2S67.4,39.5,62.3,39.5L62.3,39.5z"/>
			</g>
			<g class="st0">
				<path class="st4" d="M124.7,40.8c4.3,0,7.9,3.5,7.9,7.9s-3.5,7.9-7.9,7.9c-4.3,0-7.9-3.5-7.9-7.9S120.4,40.8,124.7,40.8
					 M124.7,39.5c-5.1,0-9.2,4.1-9.2,9.2s4.1,9.2,9.2,9.2c5.1,0,9.2-4.1,9.2-9.2S129.8,39.5,124.7,39.5L124.7,39.5z"/>
			</g>
		</g>
		<g>
			<path class="st5" d="M73.5,47.1h48.7c0.6,0,1.1-0.5,1.1-1.1v-0.2c0-0.6-0.5-1.1-1.1-1.1H73.5c-0.6,0-1.1,0.5-1.1,1.1V46
				C72.4,46.6,72.9,47.1,73.5,47.1z"/>
			<g>
				<path class="st3" d="M57.9,48.3h-1.4c0.1,1.1,0.6,2.1,1.2,2.9l1-1C58.2,49.7,58,49,57.9,48.3z"/>
				<path class="st3" d="M58.7,45.2l-1-1C57,45,56.6,46,56.4,47.1h1.4C58,46.4,58.2,45.8,58.7,45.2z"/>
				<path class="st3" d="M59.5,44.3c0.5-0.4,1.2-0.7,1.9-0.8v-1.4c-1.1,0.1-2.1,0.6-2.9,1.2L59.5,44.3z"/>
				<path class="st3" d="M65.5,43.3c-0.8-0.7-1.8-1.1-2.9-1.2v1.4c0.7,0.1,1.4,0.4,1.9,0.8L65.5,43.3z"/>
				<path class="st3" d="M58.5,52.1c0.8,0.7,1.8,1.1,2.9,1.2v-1.4c-0.7-0.1-1.4-0.4-1.9-0.8L58.5,52.1z"/>
				<path class="st3" d="M65.4,50.2l1,1c0.7-0.8,1.1-1.8,1.2-2.9h-1.4C66.1,49,65.8,49.7,65.4,50.2z"/>
				<path class="st3" d="M65.4,45.2c0.4,0.5,0.7,1.2,0.8,1.9h1.4c-0.1-1.1-0.6-2.1-1.2-2.9L65.4,45.2z"/>
				<path class="st3" d="M62.6,51.9v1.4c1.1-0.1,2.1-0.6,2.9-1.2l-1-1C64,51.5,63.4,51.8,62.6,51.9z"/>
				<path class="st3" d="M62,37.5c-5.7,0-10.3,4.6-10.3,10.3C51.8,53.4,56.4,58,62,58c5.7,0,10.3-4.6,10.3-10.3
					C72.3,42.1,67.7,37.5,62,37.5z M62,56c-4.5,0-8.2-3.7-8.2-8.2s3.7-8.2,8.2-8.2c4.5,0,8.2,3.7,8.2,8.2S66.6,56,62,56z"/>
			</g>
			<g>
				<path class="st3" d="M120.3,48.3h-1.4c0.1,1.1,0.6,2.1,1.2,2.9l1-1C120.7,49.7,120.4,49,120.3,48.3z"/>
				<path class="st3" d="M121.1,45.2l-1-1c-0.7,0.8-1.1,1.8-1.2,2.9h1.4C120.4,46.4,120.7,45.8,121.1,45.2z"/>
				<path class="st3" d="M121.9,44.3c0.5-0.4,1.2-0.7,1.9-0.8v-1.4c-1.1,0.1-2.1,0.6-2.9,1.2L121.9,44.3z"/>
				<path class="st3" d="M128,43.3c-0.8-0.7-1.8-1.1-2.9-1.2v1.4c0.7,0.1,1.4,0.4,1.9,0.8L128,43.3z"/>
				<path class="st3" d="M120.9,52.1c0.8,0.7,1.8,1.1,2.9,1.2v-1.4c-0.7-0.1-1.4-0.4-1.9-0.8L120.9,52.1z"/>
				<path class="st3" d="M127.8,50.2l1,1c0.7-0.8,1.1-1.8,1.2-2.9h-1.4C128.5,49,128.2,49.7,127.8,50.2z"/>
				<path class="st3" d="M127.8,45.2c0.4,0.5,0.7,1.2,0.8,1.9h1.4c-0.1-1.1-0.6-2.1-1.2-2.9L127.8,45.2z"/>
				<path class="st3" d="M125.1,51.9v1.4c1.1-0.1,2.1-0.6,2.9-1.2l-1-1C126.4,51.5,125.8,51.8,125.1,51.9z"/>
				<path class="st3" d="M124.5,37.5c-5.7,0-10.3,4.6-10.3,10.3c0,5.7,4.6,10.3,10.3,10.3c5.7,0,10.3-4.6,10.3-10.3
					C134.7,42.1,130.1,37.5,124.5,37.5z M124.5,56c-4.5,0-8.2-3.7-8.2-8.2s3.7-8.2,8.2-8.2s8.2,3.7,8.2,8.2S129,56,124.5,56z"/>
			</g>
			<g>
				<path class="st3" d="M68,27.9h3.3c1.1,0,2.1-0.9,2.1-2.1v-0.2H66v0.2C66,26.9,66.9,27.9,68,27.9z"/>
			</g>
			<g>
				<rect x="72.5" y="54.6" class="st3" width="10.2" height="1.9"/>
				<rect x="30.6" y="54.6" class="st3" width="19.6" height="1.9"/>
				<rect x="137.7" y="54.6" class="st3" width="11.2" height="1.9"/>
				<rect x="93" y="54.6" class="st3" width="19.3" height="1.9"/>
			</g>
		</g>
	</g>
</g>
</svg>
