<svg xmlns="http://www.w3.org/2000/svg" width="21" height="20" viewBox="0 0 21 20">
  <metadata><?xpacket begin="﻿" id="W5M0MpCehiHzreSzNTczkc9d"?>
<x:xmpmeta xmlns:x="adobe:ns:meta/" x:xmptk="Adobe XMP Core 5.6-c142 79.160924, 2017/07/13-01:06:39        ">
   <rdf:RDF xmlns:rdf="http://www.w3.org/1999/02/22-rdf-syntax-ns#">
      <rdf:Description rdf:about=""/>
   </rdf:RDF>
</x:xmpmeta>
                                                                                                    
                                                                                                    
                                                                                                    
                                                                                                    
                                                                                                    
                                                                                                    
                                                                                                    
                                                                                                    
                                                                                                    
                                                                                                    
                                                                                                    
                                                                                                    
                                                                                                    
                                                                                                    
                                                                                                    
                                                                                                    
                                                                                                    
                                                                                                    
                                                                                                    
                                                                                                    
                           
<?xpacket end="w"?></metadata>
<defs>
    <style>
      .cls-1 {
        fill: #0067c8;
        fill-rule: evenodd;
      }
    </style>
  </defs>
  <path class="cls-1" d="M505.072,343.114a0.769,0.769,0,0,1-.657-0.364,9.63,9.63,0,0,1,3.416-13.361,10.068,10.068,0,0,1,13.646,3.339l0.766,1.258a20.061,20.061,0,0,1,1.7,3.5,0.745,0.745,0,0,1-.422.976,0.771,0.771,0,0,1-1-.412c-0.007-.017-0.013-0.034-0.019-0.051a18.515,18.515,0,0,0-1.576-3.241l-0.765-1.258a8.519,8.519,0,0,0-11.549-2.83,8.148,8.148,0,0,0-2.89,11.31,0.741,0.741,0,0,1-.263,1.028,0.781,0.781,0,0,1-.392.106h0Zm15.889,3.047a0.718,0.718,0,0,1-.726-0.711v-1.51a14.7,14.7,0,0,0-2.177-7.678l-0.726-1.191a5.139,5.139,0,0,0-6.919-1.9,4.923,4.923,0,0,0-1.942,6.776c0.048,0.083.1,0.164,0.15,0.244l0.726,1.195a4.9,4.9,0,0,1,.726,2.559v1.507a0.726,0.726,0,0,1-1.452,0v-1.51a3.506,3.506,0,0,0-.517-1.827l-0.726-1.194a6.327,6.327,0,0,1,2.453-8.724,6.613,6.613,0,0,1,8.749,2.143l0.726,1.192a16.078,16.078,0,0,1,2.381,8.41v1.51A0.718,0.718,0,0,1,520.961,346.161Zm-3.176.794a0.677,0.677,0,0,1-.683-0.669V343.53a11.182,11.182,0,0,0-1.653-5.845l-0.682-1.119a2.074,2.074,0,0,0-2.81-.69,1.984,1.984,0,0,0-.7,2.752l0.683,1.12a7.246,7.246,0,0,1,1.073,3.782v2.756a0.683,0.683,0,0,1-1.365,0V343.53a5.928,5.928,0,0,0-.877-3.094l-0.682-1.12a3.306,3.306,0,0,1,1.284-4.556,3.455,3.455,0,0,1,4.566,1.118L516.617,337a12.5,12.5,0,0,1,1.85,6.533v2.756A0.676,0.676,0,0,1,517.785,346.955ZM515,348a0.6,0.6,0,0,1-.61-0.6v-4.254a7.643,7.643,0,0,0-1.129-3.989l-0.61-1a0.59,0.59,0,0,1,.209-0.82,0.616,0.616,0,0,1,.837.206l0.61,1a8.826,8.826,0,0,1,1.3,4.605V347.4A0.6,0.6,0,0,1,515,348Z" transform="translate(-503 -328)"/>
</svg>
