<svg xmlns="http://www.w3.org/2000/svg" width="650" height="200" viewBox="0 0 650 200">
  <defs>
    <style>
      .cls-1 {
        fill: #ebebeb;
      }
    </style>
  </defs>
  <rect id="banner" class="cls-1" width="650" height="200" rx="5" ry="5"/>
</svg>
