<svg xmlns="http://www.w3.org/2000/svg" width="151.031" height="122" viewBox="0 0 151.031 122">
  <defs>
    <style>
      .cls-1 {
        fill: #ebebeb;
      }
    </style>
  </defs>
  <rect id="fule_type_box" data-name="fule type_box" class="cls-1" width="151.031" height="122" rx="5" ry="5"/>
</svg>
