<svg xmlns="http://www.w3.org/2000/svg" width="1366" height="80" viewBox="0 0 1366 80">
  <defs>
    <style>
      .cls-1 {
        fill: #ebebeb;
      }
    </style>
  </defs>
  <rect id="header_section" class="cls-1" x="-1" width="1369" height="80"/>
</svg>
