<svg xmlns="http://www.w3.org/2000/svg" width="20" height="15" viewBox="0 0 20 15">
  <metadata><?xpacket begin="﻿" id="W5M0MpCehiHzreSzNTczkc9d"?>
<x:xmpmeta xmlns:x="adobe:ns:meta/" x:xmptk="Adobe XMP Core 5.6-c142 79.160924, 2017/07/13-01:06:39        ">
   <rdf:RDF xmlns:rdf="http://www.w3.org/1999/02/22-rdf-syntax-ns#">
      <rdf:Description rdf:about=""/>
   </rdf:RDF>
</x:xmpmeta>
                                                                                                    
                                                                                                    
                                                                                                    
                                                                                                    
                                                                                                    
                                                                                                    
                                                                                                    
                                                                                                    
                                                                                                    
                                                                                                    
                                                                                                    
                                                                                                    
                                                                                                    
                                                                                                    
                                                                                                    
                                                                                                    
                                                                                                    
                                                                                                    
                                                                                                    
                                                                                                    
                           
<?xpacket end="w"?></metadata>
<defs>
    <style>
      .cls-1 {
        fill: #0067c8;
        fill-rule: evenodd;
      }
    </style>
  </defs>
  <path id="email" class="cls-1" d="M760.387,523.987H747.623a3.663,3.663,0,0,1-3.614-3.7v-7.572a3.663,3.663,0,0,1,3.614-3.7h12.764a3.664,3.664,0,0,1,3.614,3.7v7.572A3.663,3.663,0,0,1,760.387,523.987Zm-12.764-13.216a1.921,1.921,0,0,0-1.9,1.941v7.572a1.922,1.922,0,0,0,1.9,1.942h12.764a1.921,1.921,0,0,0,1.894-1.942v-7.572a1.921,1.921,0,0,0-1.894-1.941H747.623Zm6.382,8.436a2.074,2.074,0,0,1-1.489-.631l-7.246-7.424,1.217-1.246,7.245,7.424a0.382,0.382,0,0,0,.546,0l7.244-7.423,1.217,1.246-7.245,7.423A2.075,2.075,0,0,1,754.005,519.207Z" transform="translate(-744 -509)"/>
</svg>
