<svg xmlns="http://www.w3.org/2000/svg" width="13.031" height="13" viewBox="0 0 13.031 13">
  <metadata><?xpacket begin="﻿" id="W5M0MpCehiHzreSzNTczkc9d"?>
<x:xmpmeta xmlns:x="adobe:ns:meta/" x:xmptk="Adobe XMP Core 5.6-c142 79.160924, 2017/07/13-01:06:39        ">
   <rdf:RDF xmlns:rdf="http://www.w3.org/1999/02/22-rdf-syntax-ns#">
      <rdf:Description rdf:about=""/>
   </rdf:RDF>
</x:xmpmeta>
                                                                                                    
                                                                                                    
                                                                                                    
                                                                                                    
                                                                                                    
                                                                                                    
                                                                                                    
                                                                                                    
                                                                                                    
                                                                                                    
                                                                                                    
                                                                                                    
                                                                                                    
                                                                                                    
                                                                                                    
                                                                                                    
                                                                                                    
                                                                                                    
                                                                                                    
                                                                                                    
                           
<?xpacket end="w"?></metadata>
<defs>
    <style>
      .cls-1 {
        fill: #2e4bd2;
        fill-rule: evenodd;
        opacity: 0.5;
      }
    </style>
  </defs>
  <path id="search_icon" class="cls-1" d="M446.187,170.734a6,6,0,0,0-8.44,0,5.893,5.893,0,0,0,0,8.376,6,6,0,0,0,7.736.6,6.028,6.028,0,0,0,.7-0.6,5.928,5.928,0,0,0,.517-0.585A5.89,5.89,0,0,0,446.187,170.734Zm-1.208,7.178a4.379,4.379,0,0,1-.724.579,4.291,4.291,0,0,1-5.3-.579,4.206,4.206,0,0,1,0-5.98,4.283,4.283,0,0,1,6.024,0,4.206,4.206,0,0,1,.5,5.38A4.244,4.244,0,0,1,444.979,177.912Zm3.769,3.84a0.858,0.858,0,0,1-1.207,0l-2.058-2.043-1.228-1.218a4.379,4.379,0,0,0,.724-0.579,4.244,4.244,0,0,0,.5-0.6l1.222,1.213,2.044,2.028A0.843,0.843,0,0,1,448.748,181.752Z" transform="translate(-436 -169)"/>
</svg>
